<?xml version="1.0" encoding="UTF-8" standalone="no"?>
<svg
   xmlns:dc="http://purl.org/dc/elements/1.1/"
   xmlns:cc="http://creativecommons.org/ns#"
   xmlns:rdf="http://www.w3.org/1999/02/22-rdf-syntax-ns#"
   xmlns:svg="http://www.w3.org/2000/svg"
   xmlns="http://www.w3.org/2000/svg"
   xmlns:sodipodi="http://sodipodi.sourceforge.net/DTD/sodipodi-0.dtd"
   xmlns:inkscape="http://www.inkscape.org/namespaces/inkscape"
   width="1000mm"
   height="600mm"
   id="svg3336"
   version="1.1"
   inkscape:version="0.48.4 r9939"
   sodipodi:docname="body_swag_decent.svg">
  <metadata
     id="metadata3377">
    <rdf:RDF>
      <cc:Work
         rdf:about="">
        <dc:format>image/svg+xml</dc:format>
        <dc:type
           rdf:resource="http://purl.org/dc/dcmitype/StillImage" />
        <dc:title />
      </cc:Work>
    </rdf:RDF>
  </metadata>
  <sodipodi:namedview
     pagecolor="#ffffff"
     bordercolor="#666666"
     borderopacity="1"
     objecttolerance="10"
     gridtolerance="10"
     guidetolerance="10"
     inkscape:pageopacity="0"
     inkscape:pageshadow="2"
     inkscape:window-width="1301"
     inkscape:window-height="744"
     id="namedview3375"
     showgrid="false"
     inkscape:document-units="mm"
     units="mm"
     inkscape:zoom="0.16"
     inkscape:cx="1304.0901"
     inkscape:cy="489.55768"
     inkscape:window-x="65"
     inkscape:window-y="24"
     inkscape:window-maximized="1"
     inkscape:current-layer="g3355"
     inkscape:snap-object-midpoints="true"
     showguides="false"
     inkscape:guide-bbox="true"
     inkscape:snap-nodes="true"
     inkscape:snap-global="true">
    <sodipodi:guide
       orientation="0,1"
       position="412.54435,961.49449"
       id="guide5425" />
  </sodipodi:namedview>
  <desc
     id="desc3338">C:\Users\remi.fabre\Desktop\SnakeRobot\holes.dxf - scale = 1.000000, origin = (0.000000, 0.000000), auto = False</desc>
  <defs
     id="defs3340">
    <marker
       refY="0"
       refX="0"
       style="overflow:visible"
       id="DistanceX"
       orient="auto">
      <path
         style="stroke:#000000;stroke-width:0.5"
         d="M 3,-3 -3,3 M 0,-5 0,5"
         id="path3343"
         inkscape:connector-curvature="0" />
    </marker>
    <pattern
       height="8"
       width="8"
       patternUnits="userSpaceOnUse"
       y="0"
       x="0"
       id="Hatch">
      <path
         linecap="square"
         stroke="#000000"
         stroke-width="0.25"
         d="M8 4 l-4,4"
         id="path3346" />
      <path
         linecap="square"
         stroke="#000000"
         stroke-width="0.25"
         d="M6 2 l-4,4"
         id="path3348" />
      <path
         linecap="square"
         stroke="#000000"
         stroke-width="0.25"
         d="M4 0 l-4,4"
         id="path3350" />
    </pattern>
    <symbol
       id="*Model_Space" />
    <symbol
       id="*Paper_Space" />
    <symbol
       id="*Paper_Space1" />
  </defs>
  <g
     inkscape:label="0"
     inkscape:groupmode="layer"
     id="g3355"
     transform="translate(0,1073.622)">
    <path
       style="fill:none;stroke:#ff0000;stroke-width:0.35433072;stroke-miterlimit:4;stroke-opacity:1;stroke-dasharray:none"
       d="m 428.48801,498.92635 a 5.314961,5.314961 0 1 0 -10.62992,0 5.314961,5.314961 0 1 0 10.62992,0 z"
       id="path3359"
       inkscape:connector-curvature="0" />
    <path
       style="fill:none;stroke:#ff0000;stroke-width:0.35433072;stroke-miterlimit:4;stroke-opacity:1;stroke-dasharray:none"
       d="m 428.48801,420.97355 a 5.314961,5.314961 0 1 0 -10.62992,0 5.314961,5.314961 0 1 0 10.62992,0 z"
       id="path3361"
       inkscape:connector-curvature="0" />
    <path
       style="fill:none;stroke:#ff0000;stroke-width:0.35433072;stroke-miterlimit:4;stroke-opacity:1;stroke-dasharray:none"
       d="m 409.70848,521.24915 a 5.314961,5.314961 0 1 0 -10.62992,0 5.314961,5.314961 0 1 0 10.62992,0 z"
       id="path3363"
       inkscape:connector-curvature="0" />
    <path
       style="fill:none;stroke:#ff0000;stroke-width:0.35433072;stroke-miterlimit:4;stroke-opacity:1;stroke-dasharray:none"
       d="m 409.70848,398.65072 a 5.314961,5.314961 0 1 0 -10.62992,0 5.314961,5.314961 0 1 0 10.62992,0 z"
       id="path3365"
       inkscape:connector-curvature="0" />
    <path
       style="fill:none;stroke:#ff0000;stroke-width:0.35433072;stroke-miterlimit:4;stroke-opacity:1;stroke-dasharray:none"
       d="m 331.75573,398.65072 a 5.314961,5.314961 0 1 0 -10.62992,0 5.314961,5.314961 0 1 0 10.62992,0 z"
       id="path3367"
       inkscape:connector-curvature="0" />
    <path
       style="fill:none;stroke:#ff0000;stroke-width:0.35433072;stroke-miterlimit:4;stroke-opacity:1;stroke-dasharray:none"
       d="m 331.75573,521.24915 a 5.314961,5.314961 0 1 0 -10.62992,0 5.314961,5.314961 0 1 0 10.62992,0 z"
       id="path3369"
       inkscape:connector-curvature="0" />
    <path
       style="fill:none;stroke:#ff0000;stroke-width:0.35433072;stroke-linecap:butt;stroke-linejoin:miter;stroke-miterlimit:4;stroke-opacity:1;stroke-dasharray:none"
       d="m 738.01266,419.19238 c 14.5665,-21.78118 20.12819,-59.41344 2.2574,-78.57689 -19.17073,-20.55743 -56.985,-17.74299 -84.25641,-3.46151 -61.9555,32.44483 -137.27559,28.62347 -206.97574,34.3715 -50.41005,4.15721 -151.74352,0 -151.74352,0 l 10e-6,176.84891 c 0,0 76.76089,16.86385 151.91594,0 75.15506,-16.86386 230.17677,-41.51967 288.80232,-129.18201 z"
       id="path3395"
       inkscape:connector-curvature="0"
       sodipodi:nodetypes="aasaccza" />
    <circle
       sodipodi:ry="17.53937"
       sodipodi:rx="17.53937"
       sodipodi:cy="980.02759"
       sodipodi:cx="540.35431"
       style="fill:none;stroke:#ff0000;stroke-width:0.35433072;stroke-miterlimit:4;stroke-opacity:1;stroke-dasharray:none"
       id="path4140"
       cx="540.35431"
       cy="980.02759"
       r="17.53937"
       d="m 557.89368,980.02759 c 0,9.68672 -7.85264,17.53937 -17.53937,17.53937 -9.68673,0 -17.53937,-7.85265 -17.53937,-17.53937 0,-9.68673 7.85264,-17.53937 17.53937,-17.53937 9.68673,0 17.53937,7.85264 17.53937,17.53937 z"
       transform="matrix(0.70710678,-0.70710678,0.70710678,0.70710678,-379.99999,70.307211)" />
    <circle
       sodipodi:ry="5.1377954"
       sodipodi:rx="5.1377954"
       sodipodi:cy="980.02759"
       sodipodi:cx="501.37796"
       style="fill:none;stroke:#ff0000;stroke-width:0.35433072;stroke-miterlimit:4;stroke-opacity:1;stroke-dasharray:none"
       id="path4140-2"
       cx="501.37796"
       cy="980.02759"
       r="5.1377954"
       d="m 506.51576,980.02759 c 0,2.83752 -2.30027,5.13779 -5.1378,5.13779 -2.83753,0 -5.1378,-2.30027 -5.1378,-5.13779 0,-2.83753 2.30027,-5.1378 5.1378,-5.1378 2.83753,0 5.1378,2.30027 5.1378,5.1378 z"
       transform="matrix(0.70710678,-0.70710678,0.70710678,0.70710678,-379.99999,70.307211)" />
    <circle
       sodipodi:ry="5.1377954"
       sodipodi:rx="5.1377954"
       sodipodi:cy="980.02759"
       sodipodi:cx="579.33069"
       style="fill:none;stroke:#ff0000;stroke-width:0.35433072;stroke-miterlimit:4;stroke-opacity:1;stroke-dasharray:none"
       id="path4140-2-2"
       cx="579.33069"
       cy="980.02759"
       r="5.1377954"
       d="m 584.46848,980.02759 c 0,2.83752 -2.30027,5.13779 -5.13779,5.13779 -2.83753,0 -5.1378,-2.30027 -5.1378,-5.13779 0,-2.83753 2.30027,-5.1378 5.1378,-5.1378 2.83752,0 5.13779,2.30027 5.13779,5.1378 z"
       transform="matrix(0.70710678,-0.70710678,0.70710678,0.70710678,-379.99999,70.307211)" />
    <circle
       sodipodi:ry="5.1377954"
       sodipodi:rx="5.1377954"
       sodipodi:cy="1019.004"
       sodipodi:cx="540.35431"
       style="fill:none;stroke:#ff0000;stroke-width:0.35433072;stroke-miterlimit:4;stroke-opacity:1;stroke-dasharray:none"
       id="path4140-2-0"
       cx="540.35431"
       cy="1019.004"
       r="5.1377954"
       d="m 545.4921,1019.004 c 0,2.8376 -2.30026,5.1378 -5.13779,5.1378 -2.83753,0 -5.1378,-2.3002 -5.1378,-5.1378 0,-2.8375 2.30027,-5.1378 5.1378,-5.1378 2.83753,0 5.13779,2.3003 5.13779,5.1378 z"
       transform="matrix(0.70710678,-0.70710678,0.70710678,0.70710678,-379.99999,70.307211)" />
    <circle
       sodipodi:ry="5.1377954"
       sodipodi:rx="5.1377954"
       sodipodi:cy="941.05127"
       sodipodi:cx="540.35431"
       style="fill:none;stroke:#ff0000;stroke-width:0.35433072;stroke-miterlimit:4;stroke-opacity:1;stroke-dasharray:none"
       id="path4140-2-1"
       cx="540.35431"
       cy="941.05127"
       r="5.1377954"
       d="m 545.4921,941.05127 c 0,2.83753 -2.30026,5.13779 -5.13779,5.13779 -2.83753,0 -5.1378,-2.30026 -5.1378,-5.13779 0,-2.83753 2.30027,-5.1378 5.1378,-5.1378 2.83753,0 5.13779,2.30027 5.13779,5.1378 z"
       transform="matrix(0.70710678,-0.70710678,0.70710678,0.70710678,-379.99999,70.307211)" />
    <path
       style="fill:none;stroke:#ff0000;stroke-width:0.35433072;stroke-miterlimit:4;stroke-opacity:1;stroke-dasharray:none;stroke-dashoffset:0"
       d="m 297.76387,408.83496 116.02818,0 0,102.22995 -116.47871,0"
       id="rect4128"
       inkscape:connector-curvature="0"
       sodipodi:nodetypes="cccc" />
    <g
       id="g5563"
       transform="translate(497.27344,616.95348)">
      <g
         transform="translate(74.30234,-470.15996)"
         id="g5549">
        <path
           style="fill:none;stroke:#ff0000;stroke-width:0.35433072;stroke-miterlimit:4;stroke-opacity:1;stroke-dasharray:none"
           d="m 317.75465,306.42637 a 5.314961,5.314961 0 1 0 -10.62992,0 5.314961,5.314961 0 1 0 10.62992,0 z"
           id="path3359-2"
           inkscape:connector-curvature="0" />
        <path
           style="fill:none;stroke:#ff0000;stroke-width:0.35433072;stroke-miterlimit:4;stroke-opacity:1;stroke-dasharray:none"
           d="m 317.75465,228.47357 a 5.314961,5.314961 0 1 0 -10.62992,0 5.314961,5.314961 0 1 0 10.62992,0 z"
           id="path3361-0"
           inkscape:connector-curvature="0" />
        <path
           style="fill:none;stroke:#ff0000;stroke-width:0.35433072;stroke-miterlimit:4;stroke-opacity:1;stroke-dasharray:none"
           d="m 298.97512,328.74917 a 5.314961,5.314961 0 1 0 -10.62992,0 5.314961,5.314961 0 1 0 10.62992,0 z"
           id="path3363-8"
           inkscape:connector-curvature="0" />
        <path
           style="fill:none;stroke:#ff0000;stroke-width:0.35433072;stroke-miterlimit:4;stroke-opacity:1;stroke-dasharray:none"
           d="m 298.97512,206.15074 a 5.314961,5.314961 0 1 0 -10.62992,0 5.314961,5.314961 0 1 0 10.62992,0 z"
           id="path3365-8"
           inkscape:connector-curvature="0" />
        <path
           style="fill:none;stroke:#ff0000;stroke-width:0.35433072;stroke-miterlimit:4;stroke-opacity:1;stroke-dasharray:none"
           d="m 221.02237,206.15074 a 5.314961,5.314961 0 1 0 -10.62992,0 5.314961,5.314961 0 1 0 10.62992,0 z"
           id="path3367-0"
           inkscape:connector-curvature="0" />
        <path
           style="fill:none;stroke:#ff0000;stroke-width:0.35433072;stroke-miterlimit:4;stroke-opacity:1;stroke-dasharray:none"
           d="m 221.02237,328.74917 a 5.314961,5.314961 0 1 0 -10.62992,0 5.314961,5.314961 0 1 0 10.62992,0 z"
           id="path3369-5"
           inkscape:connector-curvature="0" />
        <path
           style="fill:none;stroke:#ff0000;stroke-width:0.35433072;stroke-linecap:butt;stroke-linejoin:miter;stroke-miterlimit:4;stroke-opacity:1;stroke-dasharray:none"
           d="m 338.30455,179.0255 c -50.41005,4.15721 -151.74352,0 -151.74352,0 l 1e-5,176.84891 c 0,0 76.21125,16.7431 151.10721,0.18016 0.2696,-0.0596 0.53917,-0.11968 0.80873,-0.18016 z"
           id="path3395-3"
           inkscape:connector-curvature="0"
           sodipodi:nodetypes="cccsc" />
        <path
           style="fill:none;stroke:#ff0000;stroke-width:0.35433072;stroke-miterlimit:4;stroke-opacity:1;stroke-dasharray:none;stroke-dashoffset:0"
           d="m 187.03051,216.33498 116.02818,0 0,102.22995 -116.47871,0"
           id="rect4128-5"
           inkscape:connector-curvature="0"
           sodipodi:nodetypes="cccc" />
      </g>
    </g>
    <g
       transform="translate(657.5257,616.95348)"
       id="g5563-3">
      <g
         transform="translate(74.30234,-470.15996)"
         id="g5549-2">
        <path
           style="fill:none;stroke:#ff0000;stroke-width:0.35433072;stroke-miterlimit:4;stroke-opacity:1;stroke-dasharray:none"
           d="m 317.75465,306.42637 a 5.314961,5.314961 0 1 0 -10.62992,0 5.314961,5.314961 0 1 0 10.62992,0 z"
           id="path3359-2-2"
           inkscape:connector-curvature="0" />
        <path
           style="fill:none;stroke:#ff0000;stroke-width:0.35433072;stroke-miterlimit:4;stroke-opacity:1;stroke-dasharray:none"
           d="m 317.75465,228.47357 a 5.314961,5.314961 0 1 0 -10.62992,0 5.314961,5.314961 0 1 0 10.62992,0 z"
           id="path3361-0-4"
           inkscape:connector-curvature="0" />
        <path
           style="fill:none;stroke:#ff0000;stroke-width:0.35433072;stroke-miterlimit:4;stroke-opacity:1;stroke-dasharray:none"
           d="m 298.97512,328.74917 a 5.314961,5.314961 0 1 0 -10.62992,0 5.314961,5.314961 0 1 0 10.62992,0 z"
           id="path3363-8-2"
           inkscape:connector-curvature="0" />
        <path
           style="fill:none;stroke:#ff0000;stroke-width:0.35433072;stroke-miterlimit:4;stroke-opacity:1;stroke-dasharray:none"
           d="m 298.97512,206.15074 a 5.314961,5.314961 0 1 0 -10.62992,0 5.314961,5.314961 0 1 0 10.62992,0 z"
           id="path3365-8-1"
           inkscape:connector-curvature="0" />
        <path
           style="fill:none;stroke:#ff0000;stroke-width:0.35433072;stroke-miterlimit:4;stroke-opacity:1;stroke-dasharray:none"
           d="m 221.02237,206.15074 a 5.314961,5.314961 0 1 0 -10.62992,0 5.314961,5.314961 0 1 0 10.62992,0 z"
           id="path3367-0-1"
           inkscape:connector-curvature="0" />
        <path
           style="fill:none;stroke:#ff0000;stroke-width:0.35433072;stroke-miterlimit:4;stroke-opacity:1;stroke-dasharray:none"
           d="m 221.02237,328.74917 a 5.314961,5.314961 0 1 0 -10.62992,0 5.314961,5.314961 0 1 0 10.62992,0 z"
           id="path3369-5-9"
           inkscape:connector-curvature="0" />
        <path
           style="fill:none;stroke:#ff0000;stroke-width:0.35433072;stroke-linecap:butt;stroke-linejoin:miter;stroke-miterlimit:4;stroke-opacity:1;stroke-dasharray:none"
           d="m 338.30455,179.0255 c -50.41005,4.15721 -151.74352,0 -151.74352,0 l 1e-5,176.84891 c 0,0 76.21125,16.7431 151.10721,0.18016 0.2696,-0.0596 0.53917,-0.11968 0.80873,-0.18016 z"
           id="path3395-3-2"
           inkscape:connector-curvature="0"
           sodipodi:nodetypes="cccsc" />
        <path
           style="fill:none;stroke:#ff0000;stroke-width:0.35433072;stroke-miterlimit:4;stroke-opacity:1;stroke-dasharray:none;stroke-dashoffset:0"
           d="m 187.03051,216.33498 116.02818,0 0,102.22995 -116.47871,0"
           id="rect4128-5-8"
           inkscape:connector-curvature="0"
           sodipodi:nodetypes="cccc" />
      </g>
    </g>
    <path
       sodipodi:type="arc"
       style="fill:none;stroke:#000000;stroke-opacity:1"
       id="path3149"
       sodipodi:cx="827.3067"
       sodipodi:cy="1394.0507"
       sodipodi:rx="516.78943"
       sodipodi:ry="399.23645"
       d="m 1344.0961,1394.0507 a 516.78943,399.23645 0 1 1 -1033.57883,0 516.78943,399.23645 0 1 1 1033.57883,0 z"
       transform="matrix(1.3697692,0,0,1.7730901,895.47626,-2528.7903)" />
    <path
       style="fill:none;stroke:#000000;stroke-width:1px;stroke-linecap:butt;stroke-linejoin:miter;stroke-opacity:1"
       d="M 1417.758,-1115.1877 C 2639.633,1001.1619 2639.633,1001.1619 2639.633,1001.1619"
       id="path3927-7"
       inkscape:connector-curvature="0" />
    <path
       style="fill:none;stroke:#000000;stroke-width:1px;stroke-linecap:butt;stroke-linejoin:miter;stroke-opacity:1"
       d="m 806.82049,-57.012865 c 2443.75001,-1e-5 2443.75001,-1e-5 2443.75001,-1e-5"
       id="path3927-7-7-7"
       inkscape:connector-curvature="0" />
    <path
       style="fill:none;stroke:#000000;stroke-width:1px;stroke-linecap:butt;stroke-linejoin:miter;stroke-opacity:1"
       d="M 1417.758,1001.1619 C 2639.633,-1115.1877 2639.633,-1115.1877 2639.633,-1115.1877"
       id="path3927-7-7-7-8-1"
       inkscape:connector-curvature="0" />
    <path
       sodipodi:type="arc"
       style="fill:none;stroke:#000000;stroke-opacity:1"
       id="path3149-8"
       sodipodi:cx="827.3067"
       sodipodi:cy="1394.0507"
       sodipodi:rx="516.78943"
       sodipodi:ry="399.23645"
       d="m 1344.0961,1394.0507 a 516.78943,399.23645 0 1 1 -1033.57883,0 516.78943,399.23645 0 1 1 1033.57883,0 z"
       transform="matrix(0.99308261,0,0,1.2854902,1207.1116,-1849.0513)" />
  </g>
</svg>
