<?xml version="1.0" encoding="UTF-8" standalone="no"?>
<svg
   xmlns:dc="http://purl.org/dc/elements/1.1/"
   xmlns:cc="http://creativecommons.org/ns#"
   xmlns:rdf="http://www.w3.org/1999/02/22-rdf-syntax-ns#"
   xmlns:svg="http://www.w3.org/2000/svg"
   xmlns="http://www.w3.org/2000/svg"
   xmlns:sodipodi="http://sodipodi.sourceforge.net/DTD/sodipodi-0.dtd"
   xmlns:inkscape="http://www.inkscape.org/namespaces/inkscape"
   width="1000mm"
   height="600mm"
   id="svg3336"
   version="1.1"
   inkscape:version="0.91 r13725"
   sodipodi:docname="body_full_circle.svg"
   viewBox="0 0 3543.3071 2125.9843">
  <metadata
     id="metadata3377">
    <rdf:RDF>
      <cc:Work
         rdf:about="">
        <dc:format>image/svg+xml</dc:format>
        <dc:type
           rdf:resource="http://purl.org/dc/dcmitype/StillImage" />
        <dc:title />
      </cc:Work>
    </rdf:RDF>
  </metadata>
  <sodipodi:namedview
     pagecolor="#ffffff"
     bordercolor="#666666"
     borderopacity="1"
     objecttolerance="10"
     gridtolerance="10"
     guidetolerance="10"
     inkscape:pageopacity="0"
     inkscape:pageshadow="2"
     inkscape:window-width="1366"
     inkscape:window-height="706"
     id="namedview3375"
     showgrid="false"
     inkscape:document-units="mm"
     units="mm"
     inkscape:zoom="0.2329033"
     inkscape:cx="1816.0754"
     inkscape:cy="1783.1023"
     inkscape:window-x="-8"
     inkscape:window-y="-8"
     inkscape:window-maximized="1"
     inkscape:current-layer="g3355"
     inkscape:snap-object-midpoints="true"
     showguides="false"
     inkscape:guide-bbox="true"
     inkscape:snap-nodes="true"
     inkscape:snap-global="true"
     inkscape:measure-start="2696.4,1246.83"
     inkscape:measure-end="2928.42,1246.83"
     inkscape:snap-bbox="true">
    <sodipodi:guide
       orientation="0,1"
       position="412.54435,961.4945"
       id="guide5425"
       inkscape:locked="false" />
  </sodipodi:namedview>
  <desc
     id="desc3338">C:\Users\remi.fabre\Desktop\SnakeRobot\holes.dxf - scale = 1.000000, origin = (0.000000, 0.000000), auto = False</desc>
  <defs
     id="defs3340">
    <marker
       refY="0"
       refX="0"
       style="overflow:visible"
       id="DistanceX"
       orient="auto">
      <path
         style="stroke:#000000;stroke-width:0.5"
         d="M 3,-3 -3,3 M 0,-5 V 5"
         id="path3343"
         inkscape:connector-curvature="0" />
    </marker>
    <pattern
       height="8"
       width="8"
       patternUnits="userSpaceOnUse"
       y="0"
       x="0"
       id="Hatch">
      <path
         linecap="square"
         stroke="#000000"
         stroke-width="0.25"
         d="M8 4 l-4,4"
         id="path3346" />
      <path
         linecap="square"
         stroke="#000000"
         stroke-width="0.25"
         d="M6 2 l-4,4"
         id="path3348" />
      <path
         linecap="square"
         stroke="#000000"
         stroke-width="0.25"
         d="M4 0 l-4,4"
         id="path3350" />
    </pattern>
    <symbol
       id="*Model_Space" />
    <symbol
       id="*Paper_Space" />
    <symbol
       id="*Paper_Space1" />
  </defs>
  <g
     inkscape:label="0"
     inkscape:groupmode="layer"
     id="g3355"
     transform="translate(0,1073.622)">
    <g
       id="g4885-7-4"
       transform="rotate(180,1842.5062,-281.11575)">
      <g
         transform="translate(-777.32939,40.910505)"
         id="g4680-1-6-5-5" />
    </g>
    <g
       id="g5033"
       transform="translate(-300.55396,0)">
      <g
         id="g4243">
        <g
           id="g5025"
           transform="translate(51.269532,0)">
          <g
             transform="translate(-13.809998,-7.4523002)"
             id="g4132">
            <g
               transform="matrix(-0.25881905,-0.96592583,0.96592583,-0.25881905,2211.6841,225.5382)"
               id="g4066-4">
              <circle
                 transform="matrix(0.70710678,-0.70710678,0.70710678,0.70710678,-379.99999,70.307214)"
                 r="17.53937"
                 cy="980.02759"
                 cx="540.35431"
                 id="path4140-7"
                 style="fill:none;stroke:#ff0000;stroke-width:0.35433072;stroke-miterlimit:4;stroke-dasharray:none;stroke-opacity:1" />
              <circle
                 transform="matrix(0.70710678,-0.70710678,0.70710678,0.70710678,-379.99999,70.307214)"
                 r="5.1377954"
                 cy="980.02759"
                 cx="501.37796"
                 id="path4140-2-9"
                 style="fill:none;stroke:#ff0000;stroke-width:0.35433072;stroke-miterlimit:4;stroke-dasharray:none;stroke-opacity:1" />
              <circle
                 transform="matrix(0.70710678,-0.70710678,0.70710678,0.70710678,-379.99999,70.307214)"
                 r="5.1377954"
                 cy="980.02759"
                 cx="579.33069"
                 id="path4140-2-2-4"
                 style="fill:none;stroke:#ff0000;stroke-width:0.35433072;stroke-miterlimit:4;stroke-dasharray:none;stroke-opacity:1" />
              <circle
                 transform="matrix(0.70710678,-0.70710678,0.70710678,0.70710678,-379.99999,70.307214)"
                 r="5.1377954"
                 cy="1019.004"
                 cx="540.35431"
                 id="path4140-2-0-2"
                 style="fill:none;stroke:#ff0000;stroke-width:0.35433072;stroke-miterlimit:4;stroke-dasharray:none;stroke-opacity:1" />
              <circle
                 transform="matrix(0.70710678,-0.70710678,0.70710678,0.70710678,-379.99999,70.307214)"
                 r="5.1377954"
                 cy="941.05127"
                 cx="540.35431"
                 id="path4140-2-1-5"
                 style="fill:none;stroke:#ff0000;stroke-width:0.35433072;stroke-miterlimit:4;stroke-dasharray:none;stroke-opacity:1" />
            </g>
            <path
               sodipodi:nodetypes="acaccaccacca"
               inkscape:connector-curvature="0"
               id="path4114"
               transform="matrix(0.96905734,0,0,0.75540687,1759.2057,-1554.9984)"
               d="m 661.25531,1267.5123 c -15.21112,9.2701 -34.92067,11.8313 -44.81161,29.9286 -6.22524,11.3902 -8.30139,26.3165 -9.87868,40.2296 -4.09894,36.1563 1.39539,109.5953 1.39539,109.5953 107.95388,102.9333 184.30767,257.3431 206.99198,434.9184 0,0 9.97372,28.2618 19.9917,34.7496 10.3385,6.6953 34.74356,0 34.74356,0 l 105.45898,0 c 0,0 18.19036,5.5463 25.51407,0 9.9447,-7.5313 16.7376,-38.9127 16.7376,-38.9127 -25.18137,-264.3083 -136.14632,-494.6191 -296.08918,-643.717 0,0 -40.3642,21.2088 -60.05381,33.2082 z"
               style="fill:none;stroke:#ff0000;stroke-width:0.41413659;stroke-miterlimit:4;stroke-dasharray:none;stroke-dashoffset:0;stroke-opacity:1" />
          </g>
          <g
             id="g4680">
            <path
               style="fill:none;stroke:#ff0000;stroke-width:0.35433072;stroke-miterlimit:4;stroke-dasharray:none;stroke-opacity:1"
               d="m 2678.2728,-164.9049 a 5.314961,5.314961 0 1 0 0,10.62992 5.314961,5.314961 0 1 0 0,-10.62992 z"
               id="path3359-4"
               inkscape:connector-curvature="0" />
            <path
               style="fill:none;stroke:#ff0000;stroke-width:0.35433072;stroke-miterlimit:4;stroke-dasharray:none;stroke-opacity:1"
               d="m 2600.32,-164.9049 a 5.314961,5.314961 0 1 0 0,10.62992 5.314961,5.314961 0 1 0 0,-10.62992 z"
               id="path3361-3"
               inkscape:connector-curvature="0" />
            <path
               style="fill:none;stroke:#ff0000;stroke-width:0.35433072;stroke-miterlimit:4;stroke-dasharray:none;stroke-opacity:1"
               d="m 2700.5956,-146.12537 a 5.314961,5.314961 0 1 0 0,10.62992 5.314961,5.314961 0 1 0 0,-10.62992 z"
               id="path3363-5"
               inkscape:connector-curvature="0" />
            <path
               style="fill:none;stroke:#ff0000;stroke-width:0.35433072;stroke-miterlimit:4;stroke-dasharray:none;stroke-opacity:1"
               d="m 2577.9972,-146.12537 a 5.314961,5.314961 0 1 0 0,10.62992 5.314961,5.314961 0 1 0 0,-10.62992 z"
               id="path3365-1"
               inkscape:connector-curvature="0" />
            <path
               style="fill:none;stroke:#ff0000;stroke-width:0.35433072;stroke-miterlimit:4;stroke-dasharray:none;stroke-dashoffset:0;stroke-opacity:1"
               d="m 2588.1815,-114.36291 0,-35.84603 102.2299,0 0,35.82315"
               id="rect4128-1"
               inkscape:connector-curvature="0"
               sodipodi:nodetypes="cccc" />
          </g>
        </g>
        <g
           transform="matrix(-1,0,0,1,4704.8711,0)"
           id="g5025-9">
          <g
             transform="translate(-13.809998,-7.4523002)"
             id="g4132-8">
            <g
               transform="matrix(-0.25881905,-0.96592583,0.96592583,-0.25881905,2211.6841,225.5382)"
               id="g4066-4-8">
              <circle
                 transform="matrix(0.70710678,-0.70710678,0.70710678,0.70710678,-379.99999,70.307214)"
                 r="17.53937"
                 cy="980.02759"
                 cx="540.35431"
                 id="path4140-7-2"
                 style="fill:none;stroke:#ff0000;stroke-width:0.35433072;stroke-miterlimit:4;stroke-dasharray:none;stroke-opacity:1" />
              <circle
                 transform="matrix(0.70710678,-0.70710678,0.70710678,0.70710678,-379.99999,70.307214)"
                 r="5.1377954"
                 cy="980.02759"
                 cx="501.37796"
                 id="path4140-2-9-7"
                 style="fill:none;stroke:#ff0000;stroke-width:0.35433072;stroke-miterlimit:4;stroke-dasharray:none;stroke-opacity:1" />
              <circle
                 transform="matrix(0.70710678,-0.70710678,0.70710678,0.70710678,-379.99999,70.307214)"
                 r="5.1377954"
                 cy="980.02759"
                 cx="579.33069"
                 id="path4140-2-2-4-3"
                 style="fill:none;stroke:#ff0000;stroke-width:0.35433072;stroke-miterlimit:4;stroke-dasharray:none;stroke-opacity:1" />
              <circle
                 transform="matrix(0.70710678,-0.70710678,0.70710678,0.70710678,-379.99999,70.307214)"
                 r="5.1377954"
                 cy="1019.004"
                 cx="540.35431"
                 id="path4140-2-0-2-89"
                 style="fill:none;stroke:#ff0000;stroke-width:0.35433072;stroke-miterlimit:4;stroke-dasharray:none;stroke-opacity:1" />
              <circle
                 transform="matrix(0.70710678,-0.70710678,0.70710678,0.70710678,-379.99999,70.307214)"
                 r="5.1377954"
                 cy="941.05127"
                 cx="540.35431"
                 id="path4140-2-1-5-0"
                 style="fill:none;stroke:#ff0000;stroke-width:0.35433072;stroke-miterlimit:4;stroke-dasharray:none;stroke-opacity:1" />
            </g>
            <path
               sodipodi:nodetypes="acaccaccacca"
               inkscape:connector-curvature="0"
               id="path4114-44"
               transform="matrix(0.96905734,0,0,0.75540687,1759.2057,-1554.9984)"
               d="m 661.25531,1267.5123 c -15.21112,9.2701 -34.92067,11.8313 -44.81161,29.9286 -6.22524,11.3902 -8.30139,26.3165 -9.87868,40.2296 -4.09894,36.1563 1.39539,109.5953 1.39539,109.5953 107.95388,102.9333 184.30767,257.3431 206.99198,434.9184 0,0 9.97372,28.2618 19.9917,34.7496 10.3385,6.6953 34.74356,0 34.74356,0 l 105.45898,0 c 0,0 18.19036,5.5463 25.51407,0 9.9447,-7.5313 16.7376,-38.9127 16.7376,-38.9127 -25.18137,-264.3083 -136.14632,-494.6191 -296.08918,-643.717 0,0 -40.3642,21.2088 -60.05381,33.2082 z"
               style="fill:none;stroke:#ff0000;stroke-width:0.41413659;stroke-miterlimit:4;stroke-dasharray:none;stroke-dashoffset:0;stroke-opacity:1" />
          </g>
          <g
             id="g4680-4">
            <path
               style="fill:none;stroke:#ff0000;stroke-width:0.35433072;stroke-miterlimit:4;stroke-dasharray:none;stroke-opacity:1"
               d="m 2678.2728,-164.9049 a 5.314961,5.314961 0 1 0 0,10.62992 5.314961,5.314961 0 1 0 0,-10.62992 z"
               id="path3359-4-72"
               inkscape:connector-curvature="0" />
            <path
               style="fill:none;stroke:#ff0000;stroke-width:0.35433072;stroke-miterlimit:4;stroke-dasharray:none;stroke-opacity:1"
               d="m 2600.32,-164.9049 a 5.314961,5.314961 0 1 0 0,10.62992 5.314961,5.314961 0 1 0 0,-10.62992 z"
               id="path3361-3-54"
               inkscape:connector-curvature="0" />
            <path
               style="fill:none;stroke:#ff0000;stroke-width:0.35433072;stroke-miterlimit:4;stroke-dasharray:none;stroke-opacity:1"
               d="m 2700.5956,-146.12537 a 5.314961,5.314961 0 1 0 0,10.62992 5.314961,5.314961 0 1 0 0,-10.62992 z"
               id="path3363-5-0"
               inkscape:connector-curvature="0" />
            <path
               style="fill:none;stroke:#ff0000;stroke-width:0.35433072;stroke-miterlimit:4;stroke-dasharray:none;stroke-opacity:1"
               d="m 2577.9972,-146.12537 a 5.314961,5.314961 0 1 0 0,10.62992 5.314961,5.314961 0 1 0 0,-10.62992 z"
               id="path3365-1-4"
               inkscape:connector-curvature="0" />
            <path
               style="fill:none;stroke:#ff0000;stroke-width:0.35433072;stroke-miterlimit:4;stroke-dasharray:none;stroke-dashoffset:0;stroke-opacity:1"
               d="m 2588.1815,-114.36291 0,-35.84603 102.2299,0 0,35.82315"
               id="rect4128-1-2"
               inkscape:connector-curvature="0"
               sodipodi:nodetypes="cccc" />
          </g>
        </g>
        <g
           id="g4885-7-4-0"
           transform="matrix(0.33165042,0.94340235,0.94340235,-0.33165042,1999.5389,-1998.7185)">
          <g
             transform="translate(-777.32939,40.910505)"
             id="g4680-1-6-5-5-4">
            <path
               style="fill:none;stroke:#ff0000;stroke-width:0.35433072;stroke-miterlimit:4;stroke-dasharray:none;stroke-opacity:1"
               d="m 2678.2728,-164.9049 a 5.314961,5.314961 0 1 0 0,10.62992 5.314961,5.314961 0 1 0 0,-10.62992 z"
               id="path3359-4-7-3-0-4-7"
               inkscape:connector-curvature="0" />
            <path
               style="fill:none;stroke:#ff0000;stroke-width:0.35433072;stroke-miterlimit:4;stroke-dasharray:none;stroke-opacity:1"
               d="m 2600.32,-164.9049 a 5.314961,5.314961 0 1 0 0,10.62992 5.314961,5.314961 0 1 0 0,-10.62992 z"
               id="path3361-3-1-9-3-1-2"
               inkscape:connector-curvature="0" />
            <path
               style="fill:none;stroke:#ff0000;stroke-width:0.35433072;stroke-miterlimit:4;stroke-dasharray:none;stroke-opacity:1"
               d="m 2700.5956,-146.12537 a 5.314961,5.314961 0 1 0 0,10.62992 5.314961,5.314961 0 1 0 0,-10.62992 z"
               id="path3363-5-97-1-7-7-4"
               inkscape:connector-curvature="0" />
            <path
               style="fill:none;stroke:#ff0000;stroke-width:0.35433072;stroke-miterlimit:4;stroke-dasharray:none;stroke-opacity:1"
               d="m 2577.9972,-146.12537 a 5.314961,5.314961 0 1 0 0,10.62992 5.314961,5.314961 0 1 0 0,-10.62992 z"
               id="path3365-1-7-4-8-6-5"
               inkscape:connector-curvature="0" />
            <path
               style="fill:none;stroke:#ff0000;stroke-width:0.35433072;stroke-miterlimit:4;stroke-dasharray:none;stroke-dashoffset:0;stroke-opacity:1"
               d="m 2588.1815,-114.36291 0,-35.84603 102.2299,0 0,35.82315"
               id="rect4128-1-7-2-2-0-5"
               inkscape:connector-curvature="0"
               sodipodi:nodetypes="cccc" />
          </g>
          <path
             d="m 1745.1318,-156.49179 c 99.9909,-29.0238 155.8495,-45.1986 187.0539,-54.21272 m -187.0529,54.17833 c 5.2591,18.52817 9.5034,37.48306 12.6691,56.800855 0,0 9.6651,21.349158 19.3731,26.250087 10.0186,5.057675 33.6685,0 33.6685,0 l 102.1958,0 c 0,0 17.6275,4.189713 24.7246,0 9.637,-5.689196 16.2197,-29.394922 16.2197,-29.394922 -4.5093,-36.8952 -11.8572,-72.91346 -21.8187,-107.82965"
             style="fill:none;stroke:#ff0000;stroke-width:0.35433072;stroke-linecap:butt;stroke-linejoin:miter;stroke-miterlimit:4;stroke-dasharray:none;stroke-opacity:1"
             id="path4864-5-2-6"
             inkscape:connector-curvature="0" />
        </g>
        <g
           id="g5234"
           transform="translate(-4.3945313,11.71875)">
          <g
             transform="matrix(-0.31200844,0.95007933,-0.95007933,-0.31200844,2711.5556,-1981.3507)"
             id="g4885-7-4-0-6">
            <g
               id="g4680-1-6-5-5-4-0"
               transform="translate(-777.32939,40.910505)">
              <path
                 inkscape:connector-curvature="0"
                 id="path3359-4-7-3-0-4-7-3"
                 d="m 2678.2728,-164.9049 a 5.314961,5.314961 0 1 0 0,10.62992 5.314961,5.314961 0 1 0 0,-10.62992 z"
                 style="fill:none;stroke:#ff0000;stroke-width:0.35433072;stroke-miterlimit:4;stroke-dasharray:none;stroke-opacity:1" />
              <path
                 inkscape:connector-curvature="0"
                 id="path3361-3-1-9-3-1-2-6"
                 d="m 2600.32,-164.9049 a 5.314961,5.314961 0 1 0 0,10.62992 5.314961,5.314961 0 1 0 0,-10.62992 z"
                 style="fill:none;stroke:#ff0000;stroke-width:0.35433072;stroke-miterlimit:4;stroke-dasharray:none;stroke-opacity:1" />
              <path
                 inkscape:connector-curvature="0"
                 id="path3363-5-97-1-7-7-4-3"
                 d="m 2700.5956,-146.12537 a 5.314961,5.314961 0 1 0 0,10.62992 5.314961,5.314961 0 1 0 0,-10.62992 z"
                 style="fill:none;stroke:#ff0000;stroke-width:0.35433072;stroke-miterlimit:4;stroke-dasharray:none;stroke-opacity:1" />
              <path
                 inkscape:connector-curvature="0"
                 id="path3365-1-7-4-8-6-5-8"
                 d="m 2577.9972,-146.12537 a 5.314961,5.314961 0 1 0 0,10.62992 5.314961,5.314961 0 1 0 0,-10.62992 z"
                 style="fill:none;stroke:#ff0000;stroke-width:0.35433072;stroke-miterlimit:4;stroke-dasharray:none;stroke-opacity:1" />
              <path
                 sodipodi:nodetypes="cccc"
                 inkscape:connector-curvature="0"
                 id="rect4128-1-7-2-2-0-5-6"
                 d="m 2588.1815,-114.36291 0,-35.84603 102.2299,0 0,35.82315"
                 style="fill:none;stroke:#ff0000;stroke-width:0.35433072;stroke-miterlimit:4;stroke-dasharray:none;stroke-dashoffset:0;stroke-opacity:1" />
            </g>
            <path
               inkscape:connector-curvature="0"
               id="path4864-5-2-6-5"
               style="fill:none;stroke:#ff0000;stroke-width:0.35433072;stroke-linecap:butt;stroke-linejoin:miter;stroke-miterlimit:4;stroke-dasharray:none;stroke-opacity:1"
               d="m 1745.1318,-156.49179 c 99.9909,-29.0238 155.8495,-45.1986 187.0539,-54.21272 m -187.0529,54.17833 c 5.2591,18.52817 9.5034,37.48306 12.6691,56.800855 0,0 9.6651,21.349158 19.3731,26.250087 10.0186,5.057675 33.6685,0 33.6685,0 l 102.1958,0 c 0,0 17.6275,4.189713 24.7246,0 9.637,-5.689196 16.2197,-29.394922 16.2197,-29.394922 -4.5093,-36.8952 -11.8572,-72.91346 -21.8187,-107.82965" />
          </g>
        </g>
        <g
           transform="matrix(-0.96592583,0.25881905,-0.25881905,-0.96592583,4501.8869,-1064.5655)"
           id="g5234-0">
          <g
             transform="matrix(-0.31200844,0.95007933,-0.95007933,-0.31200844,2711.5556,-1981.3507)"
             id="g4885-7-4-0-6-5">
            <g
               id="g4680-1-6-5-5-4-0-4"
               transform="translate(-777.32939,40.910505)">
              <path
                 inkscape:connector-curvature="0"
                 id="path3359-4-7-3-0-4-7-3-5"
                 d="m 2678.2728,-164.9049 a 5.314961,5.314961 0 1 0 0,10.62992 5.314961,5.314961 0 1 0 0,-10.62992 z"
                 style="fill:none;stroke:#ff0000;stroke-width:0.35433072;stroke-miterlimit:4;stroke-dasharray:none;stroke-opacity:1" />
              <path
                 inkscape:connector-curvature="0"
                 id="path3361-3-1-9-3-1-2-6-5"
                 d="m 2600.32,-164.9049 a 5.314961,5.314961 0 1 0 0,10.62992 5.314961,5.314961 0 1 0 0,-10.62992 z"
                 style="fill:none;stroke:#ff0000;stroke-width:0.35433072;stroke-miterlimit:4;stroke-dasharray:none;stroke-opacity:1" />
              <path
                 inkscape:connector-curvature="0"
                 id="path3363-5-97-1-7-7-4-3-6"
                 d="m 2700.5956,-146.12537 a 5.314961,5.314961 0 1 0 0,10.62992 5.314961,5.314961 0 1 0 0,-10.62992 z"
                 style="fill:none;stroke:#ff0000;stroke-width:0.35433072;stroke-miterlimit:4;stroke-dasharray:none;stroke-opacity:1" />
              <path
                 inkscape:connector-curvature="0"
                 id="path3365-1-7-4-8-6-5-8-3"
                 d="m 2577.9972,-146.12537 a 5.314961,5.314961 0 1 0 0,10.62992 5.314961,5.314961 0 1 0 0,-10.62992 z"
                 style="fill:none;stroke:#ff0000;stroke-width:0.35433072;stroke-miterlimit:4;stroke-dasharray:none;stroke-opacity:1" />
              <path
                 sodipodi:nodetypes="cccc"
                 inkscape:connector-curvature="0"
                 id="rect4128-1-7-2-2-0-5-6-8"
                 d="m 2588.1815,-114.36291 0,-35.84603 102.2299,0 0,35.82315"
                 style="fill:none;stroke:#ff0000;stroke-width:0.35433072;stroke-miterlimit:4;stroke-dasharray:none;stroke-dashoffset:0;stroke-opacity:1" />
            </g>
            <path
               inkscape:connector-curvature="0"
               id="path4864-5-2-6-5-9"
               style="fill:none;stroke:#ff0000;stroke-width:0.35433072;stroke-linecap:butt;stroke-linejoin:miter;stroke-miterlimit:4;stroke-dasharray:none;stroke-opacity:1"
               d="m 1745.1318,-156.49179 c 99.9909,-29.0238 155.8495,-45.1986 187.0539,-54.21272 m -187.0529,54.17833 c 5.2591,18.52817 9.5034,37.48306 12.6691,56.800855 0,0 9.6651,21.349158 19.3731,26.250087 10.0186,5.057675 33.6685,0 33.6685,0 l 102.1958,0 c 0,0 17.6275,4.189713 24.7246,0 9.637,-5.689196 16.2197,-29.394922 16.2197,-29.394922 -4.5093,-36.8952 -11.8572,-72.91346 -21.8187,-107.82965" />
          </g>
        </g>
      </g>
      <g
         id="g4243-9"
         transform="translate(-818.30447,-2.9501296e-6)">
        <g
           id="g5025-0"
           transform="translate(51.269532,0)">
          <g
             transform="translate(-13.809998,-7.4523002)"
             id="g4132-9">
            <g
               transform="matrix(-0.25881905,-0.96592583,0.96592583,-0.25881905,2211.6841,225.5382)"
               id="g4066-4-7">
              <circle
                 transform="matrix(0.70710678,-0.70710678,0.70710678,0.70710678,-379.99999,70.307214)"
                 r="17.53937"
                 cy="980.02759"
                 cx="540.35431"
                 id="path4140-7-7"
                 style="fill:none;stroke:#ff0000;stroke-width:0.35433072;stroke-miterlimit:4;stroke-dasharray:none;stroke-opacity:1" />
              <circle
                 transform="matrix(0.70710678,-0.70710678,0.70710678,0.70710678,-379.99999,70.307214)"
                 r="5.1377954"
                 cy="980.02759"
                 cx="501.37796"
                 id="path4140-2-9-4"
                 style="fill:none;stroke:#ff0000;stroke-width:0.35433072;stroke-miterlimit:4;stroke-dasharray:none;stroke-opacity:1" />
              <circle
                 transform="matrix(0.70710678,-0.70710678,0.70710678,0.70710678,-379.99999,70.307214)"
                 r="5.1377954"
                 cy="980.02759"
                 cx="579.33069"
                 id="path4140-2-2-4-5"
                 style="fill:none;stroke:#ff0000;stroke-width:0.35433072;stroke-miterlimit:4;stroke-dasharray:none;stroke-opacity:1" />
              <circle
                 transform="matrix(0.70710678,-0.70710678,0.70710678,0.70710678,-379.99999,70.307214)"
                 r="5.1377954"
                 cy="1019.004"
                 cx="540.35431"
                 id="path4140-2-0-2-0"
                 style="fill:none;stroke:#ff0000;stroke-width:0.35433072;stroke-miterlimit:4;stroke-dasharray:none;stroke-opacity:1" />
              <circle
                 transform="matrix(0.70710678,-0.70710678,0.70710678,0.70710678,-379.99999,70.307214)"
                 r="5.1377954"
                 cy="941.05127"
                 cx="540.35431"
                 id="path4140-2-1-5-5"
                 style="fill:none;stroke:#ff0000;stroke-width:0.35433072;stroke-miterlimit:4;stroke-dasharray:none;stroke-opacity:1" />
            </g>
            <path
               sodipodi:nodetypes="acaccaccacca"
               inkscape:connector-curvature="0"
               id="path4114-7"
               transform="matrix(0.96905734,0,0,0.75540687,1759.2057,-1554.9984)"
               d="m 661.25531,1267.5123 c -15.21112,9.2701 -34.92067,11.8313 -44.81161,29.9286 -6.22524,11.3902 -8.30139,26.3165 -9.87868,40.2296 -4.09894,36.1563 1.39539,109.5953 1.39539,109.5953 107.95388,102.9333 184.30767,257.3431 206.99198,434.9184 0,0 9.97372,28.2618 19.9917,34.7496 10.3385,6.6953 34.74356,0 34.74356,0 l 105.45898,0 c 0,0 18.19036,5.5463 25.51407,0 9.9447,-7.5313 16.7376,-38.9127 16.7376,-38.9127 -25.18137,-264.3083 -136.14632,-494.6191 -296.08918,-643.717 0,0 -40.3642,21.2088 -60.05381,33.2082 z"
               style="fill:none;stroke:#ff0000;stroke-width:0.41413659;stroke-miterlimit:4;stroke-dasharray:none;stroke-dashoffset:0;stroke-opacity:1" />
          </g>
          <g
             id="g4680-1">
            <path
               style="fill:none;stroke:#ff0000;stroke-width:0.35433072;stroke-miterlimit:4;stroke-dasharray:none;stroke-opacity:1"
               d="m 2678.2728,-164.9049 a 5.314961,5.314961 0 1 0 0,10.62992 5.314961,5.314961 0 1 0 0,-10.62992 z"
               id="path3359-4-9"
               inkscape:connector-curvature="0" />
            <path
               style="fill:none;stroke:#ff0000;stroke-width:0.35433072;stroke-miterlimit:4;stroke-dasharray:none;stroke-opacity:1"
               d="m 2600.32,-164.9049 a 5.314961,5.314961 0 1 0 0,10.62992 5.314961,5.314961 0 1 0 0,-10.62992 z"
               id="path3361-3-3"
               inkscape:connector-curvature="0" />
            <path
               style="fill:none;stroke:#ff0000;stroke-width:0.35433072;stroke-miterlimit:4;stroke-dasharray:none;stroke-opacity:1"
               d="m 2700.5956,-146.12537 a 5.314961,5.314961 0 1 0 0,10.62992 5.314961,5.314961 0 1 0 0,-10.62992 z"
               id="path3363-5-9"
               inkscape:connector-curvature="0" />
            <path
               style="fill:none;stroke:#ff0000;stroke-width:0.35433072;stroke-miterlimit:4;stroke-dasharray:none;stroke-opacity:1"
               d="m 2577.9972,-146.12537 a 5.314961,5.314961 0 1 0 0,10.62992 5.314961,5.314961 0 1 0 0,-10.62992 z"
               id="path3365-1-42"
               inkscape:connector-curvature="0" />
            <path
               style="fill:none;stroke:#ff0000;stroke-width:0.35433072;stroke-miterlimit:4;stroke-dasharray:none;stroke-dashoffset:0;stroke-opacity:1"
               d="m 2588.1815,-114.36291 0,-35.84603 102.2299,0 0,35.82315"
               id="rect4128-1-3"
               inkscape:connector-curvature="0"
               sodipodi:nodetypes="cccc" />
          </g>
        </g>
        <g
           transform="matrix(-1,0,0,1,4704.8711,0)"
           id="g5025-9-9">
          <g
             transform="translate(-13.809998,-7.4523002)"
             id="g4132-8-1">
            <g
               transform="matrix(-0.25881905,-0.96592583,0.96592583,-0.25881905,2211.6841,225.5382)"
               id="g4066-4-8-7">
              <circle
                 transform="matrix(0.70710678,-0.70710678,0.70710678,0.70710678,-379.99999,70.307214)"
                 r="17.53937"
                 cy="980.02759"
                 cx="540.35431"
                 id="path4140-7-2-8"
                 style="fill:none;stroke:#ff0000;stroke-width:0.35433072;stroke-miterlimit:4;stroke-dasharray:none;stroke-opacity:1" />
              <circle
                 transform="matrix(0.70710678,-0.70710678,0.70710678,0.70710678,-379.99999,70.307214)"
                 r="5.1377954"
                 cy="980.02759"
                 cx="501.37796"
                 id="path4140-2-9-7-6"
                 style="fill:none;stroke:#ff0000;stroke-width:0.35433072;stroke-miterlimit:4;stroke-dasharray:none;stroke-opacity:1" />
              <circle
                 transform="matrix(0.70710678,-0.70710678,0.70710678,0.70710678,-379.99999,70.307214)"
                 r="5.1377954"
                 cy="980.02759"
                 cx="579.33069"
                 id="path4140-2-2-4-3-3"
                 style="fill:none;stroke:#ff0000;stroke-width:0.35433072;stroke-miterlimit:4;stroke-dasharray:none;stroke-opacity:1" />
              <circle
                 transform="matrix(0.70710678,-0.70710678,0.70710678,0.70710678,-379.99999,70.307214)"
                 r="5.1377954"
                 cy="1019.004"
                 cx="540.35431"
                 id="path4140-2-0-2-89-5"
                 style="fill:none;stroke:#ff0000;stroke-width:0.35433072;stroke-miterlimit:4;stroke-dasharray:none;stroke-opacity:1" />
              <circle
                 transform="matrix(0.70710678,-0.70710678,0.70710678,0.70710678,-379.99999,70.307214)"
                 r="5.1377954"
                 cy="941.05127"
                 cx="540.35431"
                 id="path4140-2-1-5-0-2"
                 style="fill:none;stroke:#ff0000;stroke-width:0.35433072;stroke-miterlimit:4;stroke-dasharray:none;stroke-opacity:1" />
            </g>
            <path
               sodipodi:nodetypes="acaccaccacca"
               inkscape:connector-curvature="0"
               id="path4114-44-3"
               transform="matrix(0.96905734,0,0,0.75540687,1759.2057,-1554.9984)"
               d="m 661.25531,1267.5123 c -15.21112,9.2701 -34.92067,11.8313 -44.81161,29.9286 -6.22524,11.3902 -8.30139,26.3165 -9.87868,40.2296 -4.09894,36.1563 1.39539,109.5953 1.39539,109.5953 107.95388,102.9333 184.30767,257.3431 206.99198,434.9184 0,0 9.97372,28.2618 19.9917,34.7496 10.3385,6.6953 34.74356,0 34.74356,0 l 105.45898,0 c 0,0 18.19036,5.5463 25.51407,0 9.9447,-7.5313 16.7376,-38.9127 16.7376,-38.9127 -25.18137,-264.3083 -136.14632,-494.6191 -296.08918,-643.717 0,0 -40.3642,21.2088 -60.05381,33.2082 z"
               style="fill:none;stroke:#ff0000;stroke-width:0.41413659;stroke-miterlimit:4;stroke-dasharray:none;stroke-dashoffset:0;stroke-opacity:1" />
          </g>
          <g
             id="g4680-4-4">
            <path
               style="fill:none;stroke:#ff0000;stroke-width:0.35433072;stroke-miterlimit:4;stroke-dasharray:none;stroke-opacity:1"
               d="m 2678.2728,-164.9049 a 5.314961,5.314961 0 1 0 0,10.62992 5.314961,5.314961 0 1 0 0,-10.62992 z"
               id="path3359-4-72-4"
               inkscape:connector-curvature="0" />
            <path
               style="fill:none;stroke:#ff0000;stroke-width:0.35433072;stroke-miterlimit:4;stroke-dasharray:none;stroke-opacity:1"
               d="m 2600.32,-164.9049 a 5.314961,5.314961 0 1 0 0,10.62992 5.314961,5.314961 0 1 0 0,-10.62992 z"
               id="path3361-3-54-1"
               inkscape:connector-curvature="0" />
            <path
               style="fill:none;stroke:#ff0000;stroke-width:0.35433072;stroke-miterlimit:4;stroke-dasharray:none;stroke-opacity:1"
               d="m 2700.5956,-146.12537 a 5.314961,5.314961 0 1 0 0,10.62992 5.314961,5.314961 0 1 0 0,-10.62992 z"
               id="path3363-5-0-8"
               inkscape:connector-curvature="0" />
            <path
               style="fill:none;stroke:#ff0000;stroke-width:0.35433072;stroke-miterlimit:4;stroke-dasharray:none;stroke-opacity:1"
               d="m 2577.9972,-146.12537 a 5.314961,5.314961 0 1 0 0,10.62992 5.314961,5.314961 0 1 0 0,-10.62992 z"
               id="path3365-1-4-6"
               inkscape:connector-curvature="0" />
            <path
               style="fill:none;stroke:#ff0000;stroke-width:0.35433072;stroke-miterlimit:4;stroke-dasharray:none;stroke-dashoffset:0;stroke-opacity:1"
               d="m 2588.1815,-114.36291 0,-35.84603 102.2299,0 0,35.82315"
               id="rect4128-1-2-4"
               inkscape:connector-curvature="0"
               sodipodi:nodetypes="cccc" />
          </g>
        </g>
        <g
           id="g4885-7-4-0-4"
           transform="matrix(0.33165042,0.94340235,0.94340235,-0.33165042,1999.5389,-1998.7185)">
          <g
             transform="translate(-777.32939,40.910505)"
             id="g4680-1-6-5-5-4-07">
            <path
               style="fill:none;stroke:#ff0000;stroke-width:0.35433072;stroke-miterlimit:4;stroke-dasharray:none;stroke-opacity:1"
               d="m 2678.2728,-164.9049 a 5.314961,5.314961 0 1 0 0,10.62992 5.314961,5.314961 0 1 0 0,-10.62992 z"
               id="path3359-4-7-3-0-4-7-0"
               inkscape:connector-curvature="0" />
            <path
               style="fill:none;stroke:#ff0000;stroke-width:0.35433072;stroke-miterlimit:4;stroke-dasharray:none;stroke-opacity:1"
               d="m 2600.32,-164.9049 a 5.314961,5.314961 0 1 0 0,10.62992 5.314961,5.314961 0 1 0 0,-10.62992 z"
               id="path3361-3-1-9-3-1-2-5"
               inkscape:connector-curvature="0" />
            <path
               style="fill:none;stroke:#ff0000;stroke-width:0.35433072;stroke-miterlimit:4;stroke-dasharray:none;stroke-opacity:1"
               d="m 2700.5956,-146.12537 a 5.314961,5.314961 0 1 0 0,10.62992 5.314961,5.314961 0 1 0 0,-10.62992 z"
               id="path3363-5-97-1-7-7-4-9"
               inkscape:connector-curvature="0" />
            <path
               style="fill:none;stroke:#ff0000;stroke-width:0.35433072;stroke-miterlimit:4;stroke-dasharray:none;stroke-opacity:1"
               d="m 2577.9972,-146.12537 a 5.314961,5.314961 0 1 0 0,10.62992 5.314961,5.314961 0 1 0 0,-10.62992 z"
               id="path3365-1-7-4-8-6-5-5"
               inkscape:connector-curvature="0" />
            <path
               style="fill:none;stroke:#ff0000;stroke-width:0.35433072;stroke-miterlimit:4;stroke-dasharray:none;stroke-dashoffset:0;stroke-opacity:1"
               d="m 2588.1815,-114.36291 0,-35.84603 102.2299,0 0,35.82315"
               id="rect4128-1-7-2-2-0-5-0"
               inkscape:connector-curvature="0"
               sodipodi:nodetypes="cccc" />
          </g>
          <path
             d="m 1745.1318,-156.49179 c 99.9909,-29.0238 155.8495,-45.1986 187.0539,-54.21272 m -187.0529,54.17833 c 5.2591,18.52817 9.5034,37.48306 12.6691,56.800855 0,0 9.6651,21.349158 19.3731,26.250087 10.0186,5.057675 33.6685,0 33.6685,0 l 102.1958,0 c 0,0 17.6275,4.189713 24.7246,0 9.637,-5.689196 16.2197,-29.394922 16.2197,-29.394922 -4.5093,-36.8952 -11.8572,-72.91346 -21.8187,-107.82965"
             style="fill:none;stroke:#ff0000;stroke-width:0.35433072;stroke-linecap:butt;stroke-linejoin:miter;stroke-miterlimit:4;stroke-dasharray:none;stroke-opacity:1"
             id="path4864-5-2-6-4"
             inkscape:connector-curvature="0" />
        </g>
        <g
           id="g5234-4"
           transform="translate(-4.3945313,11.71875)">
          <g
             transform="matrix(-0.31200844,0.95007933,-0.95007933,-0.31200844,2711.5556,-1981.3507)"
             id="g4885-7-4-0-6-3">
            <g
               id="g4680-1-6-5-5-4-0-3"
               transform="translate(-777.32939,40.910505)">
              <path
                 inkscape:connector-curvature="0"
                 id="path3359-4-7-3-0-4-7-3-9"
                 d="m 2678.2728,-164.9049 a 5.314961,5.314961 0 1 0 0,10.62992 5.314961,5.314961 0 1 0 0,-10.62992 z"
                 style="fill:none;stroke:#ff0000;stroke-width:0.35433072;stroke-miterlimit:4;stroke-dasharray:none;stroke-opacity:1" />
              <path
                 inkscape:connector-curvature="0"
                 id="path3361-3-1-9-3-1-2-6-0"
                 d="m 2600.32,-164.9049 a 5.314961,5.314961 0 1 0 0,10.62992 5.314961,5.314961 0 1 0 0,-10.62992 z"
                 style="fill:none;stroke:#ff0000;stroke-width:0.35433072;stroke-miterlimit:4;stroke-dasharray:none;stroke-opacity:1" />
              <path
                 inkscape:connector-curvature="0"
                 id="path3363-5-97-1-7-7-4-3-4"
                 d="m 2700.5956,-146.12537 a 5.314961,5.314961 0 1 0 0,10.62992 5.314961,5.314961 0 1 0 0,-10.62992 z"
                 style="fill:none;stroke:#ff0000;stroke-width:0.35433072;stroke-miterlimit:4;stroke-dasharray:none;stroke-opacity:1" />
              <path
                 inkscape:connector-curvature="0"
                 id="path3365-1-7-4-8-6-5-8-2"
                 d="m 2577.9972,-146.12537 a 5.314961,5.314961 0 1 0 0,10.62992 5.314961,5.314961 0 1 0 0,-10.62992 z"
                 style="fill:none;stroke:#ff0000;stroke-width:0.35433072;stroke-miterlimit:4;stroke-dasharray:none;stroke-opacity:1" />
              <path
                 sodipodi:nodetypes="cccc"
                 inkscape:connector-curvature="0"
                 id="rect4128-1-7-2-2-0-5-6-3"
                 d="m 2588.1815,-114.36291 0,-35.84603 102.2299,0 0,35.82315"
                 style="fill:none;stroke:#ff0000;stroke-width:0.35433072;stroke-miterlimit:4;stroke-dasharray:none;stroke-dashoffset:0;stroke-opacity:1" />
            </g>
            <path
               inkscape:connector-curvature="0"
               id="path4864-5-2-6-5-7"
               style="fill:none;stroke:#ff0000;stroke-width:0.35433072;stroke-linecap:butt;stroke-linejoin:miter;stroke-miterlimit:4;stroke-dasharray:none;stroke-opacity:1"
               d="m 1745.1318,-156.49179 c 99.9909,-29.0238 155.8495,-45.1986 187.0539,-54.21272 m -187.0529,54.17833 c 5.2591,18.52817 9.5034,37.48306 12.6691,56.800855 0,0 9.6651,21.349158 19.3731,26.250087 10.0186,5.057675 33.6685,0 33.6685,0 l 102.1958,0 c 0,0 17.6275,4.189713 24.7246,0 9.637,-5.689196 16.2197,-29.394922 16.2197,-29.394922 -4.5093,-36.8952 -11.8572,-72.91346 -21.8187,-107.82965" />
          </g>
        </g>
        <g
           transform="matrix(-0.96592583,0.25881905,-0.25881905,-0.96592583,4501.8869,-1064.5655)"
           id="g5234-0-0">
          <g
             transform="matrix(-0.31200844,0.95007933,-0.95007933,-0.31200844,2711.5556,-1981.3507)"
             id="g4885-7-4-0-6-5-1">
            <g
               id="g4680-1-6-5-5-4-0-4-2"
               transform="translate(-777.32939,40.910505)">
              <path
                 inkscape:connector-curvature="0"
                 id="path3359-4-7-3-0-4-7-3-5-2"
                 d="m 2678.2728,-164.9049 a 5.314961,5.314961 0 1 0 0,10.62992 5.314961,5.314961 0 1 0 0,-10.62992 z"
                 style="fill:none;stroke:#ff0000;stroke-width:0.35433072;stroke-miterlimit:4;stroke-dasharray:none;stroke-opacity:1" />
              <path
                 inkscape:connector-curvature="0"
                 id="path3361-3-1-9-3-1-2-6-5-1"
                 d="m 2600.32,-164.9049 a 5.314961,5.314961 0 1 0 0,10.62992 5.314961,5.314961 0 1 0 0,-10.62992 z"
                 style="fill:none;stroke:#ff0000;stroke-width:0.35433072;stroke-miterlimit:4;stroke-dasharray:none;stroke-opacity:1" />
              <path
                 inkscape:connector-curvature="0"
                 id="path3363-5-97-1-7-7-4-3-6-6"
                 d="m 2700.5956,-146.12537 a 5.314961,5.314961 0 1 0 0,10.62992 5.314961,5.314961 0 1 0 0,-10.62992 z"
                 style="fill:none;stroke:#ff0000;stroke-width:0.35433072;stroke-miterlimit:4;stroke-dasharray:none;stroke-opacity:1" />
              <path
                 inkscape:connector-curvature="0"
                 id="path3365-1-7-4-8-6-5-8-3-2"
                 d="m 2577.9972,-146.12537 a 5.314961,5.314961 0 1 0 0,10.62992 5.314961,5.314961 0 1 0 0,-10.62992 z"
                 style="fill:none;stroke:#ff0000;stroke-width:0.35433072;stroke-miterlimit:4;stroke-dasharray:none;stroke-opacity:1" />
              <path
                 sodipodi:nodetypes="cccc"
                 inkscape:connector-curvature="0"
                 id="rect4128-1-7-2-2-0-5-6-8-8"
                 d="m 2588.1815,-114.36291 0,-35.84603 102.2299,0 0,35.82315"
                 style="fill:none;stroke:#ff0000;stroke-width:0.35433072;stroke-miterlimit:4;stroke-dasharray:none;stroke-dashoffset:0;stroke-opacity:1" />
            </g>
            <path
               inkscape:connector-curvature="0"
               id="path4864-5-2-6-5-9-7"
               style="fill:none;stroke:#ff0000;stroke-width:0.35433072;stroke-linecap:butt;stroke-linejoin:miter;stroke-miterlimit:4;stroke-dasharray:none;stroke-opacity:1"
               d="m 1745.1318,-156.49179 c 99.9909,-29.0238 155.8495,-45.1986 187.0539,-54.21272 m -187.0529,54.17833 c 5.2591,18.52817 9.5034,37.48306 12.6691,56.800855 0,0 9.6651,21.349158 19.3731,26.250087 10.0186,5.057675 33.6685,0 33.6685,0 l 102.1958,0 c 0,0 17.6275,4.189713 24.7246,0 9.637,-5.689196 16.2197,-29.394922 16.2197,-29.394922 -4.5093,-36.8952 -11.8572,-72.91346 -21.8187,-107.82965" />
          </g>
        </g>
      </g>
      <g
         id="g4243-9-9"
         transform="translate(-1637.6061,-2.9501296e-6)">
        <g
           id="g5025-0-2"
           transform="translate(51.269532,0)">
          <g
             transform="translate(-13.809998,-7.4523002)"
             id="g4132-9-2">
            <g
               transform="matrix(-0.25881905,-0.96592583,0.96592583,-0.25881905,2211.6841,225.5382)"
               id="g4066-4-7-5">
              <circle
                 transform="matrix(0.70710678,-0.70710678,0.70710678,0.70710678,-379.99999,70.307214)"
                 r="17.53937"
                 cy="980.02759"
                 cx="540.35431"
                 id="path4140-7-7-2"
                 style="fill:none;stroke:#ff0000;stroke-width:0.35433072;stroke-miterlimit:4;stroke-dasharray:none;stroke-opacity:1" />
              <circle
                 transform="matrix(0.70710678,-0.70710678,0.70710678,0.70710678,-379.99999,70.307214)"
                 r="5.1377954"
                 cy="980.02759"
                 cx="501.37796"
                 id="path4140-2-9-4-0"
                 style="fill:none;stroke:#ff0000;stroke-width:0.35433072;stroke-miterlimit:4;stroke-dasharray:none;stroke-opacity:1" />
              <circle
                 transform="matrix(0.70710678,-0.70710678,0.70710678,0.70710678,-379.99999,70.307214)"
                 r="5.1377954"
                 cy="980.02759"
                 cx="579.33069"
                 id="path4140-2-2-4-5-2"
                 style="fill:none;stroke:#ff0000;stroke-width:0.35433072;stroke-miterlimit:4;stroke-dasharray:none;stroke-opacity:1" />
              <circle
                 transform="matrix(0.70710678,-0.70710678,0.70710678,0.70710678,-379.99999,70.307214)"
                 r="5.1377954"
                 cy="1019.004"
                 cx="540.35431"
                 id="path4140-2-0-2-0-9"
                 style="fill:none;stroke:#ff0000;stroke-width:0.35433072;stroke-miterlimit:4;stroke-dasharray:none;stroke-opacity:1" />
              <circle
                 transform="matrix(0.70710678,-0.70710678,0.70710678,0.70710678,-379.99999,70.307214)"
                 r="5.1377954"
                 cy="941.05127"
                 cx="540.35431"
                 id="path4140-2-1-5-5-7"
                 style="fill:none;stroke:#ff0000;stroke-width:0.35433072;stroke-miterlimit:4;stroke-dasharray:none;stroke-opacity:1" />
            </g>
            <path
               sodipodi:nodetypes="acaccaccacca"
               inkscape:connector-curvature="0"
               id="path4114-7-4"
               transform="matrix(0.96905734,0,0,0.75540687,1759.2057,-1554.9984)"
               d="m 661.25531,1267.5123 c -15.21112,9.2701 -34.92067,11.8313 -44.81161,29.9286 -6.22524,11.3902 -8.30139,26.3165 -9.87868,40.2296 -4.09894,36.1563 1.39539,109.5953 1.39539,109.5953 107.95388,102.9333 184.30767,257.3431 206.99198,434.9184 0,0 9.97372,28.2618 19.9917,34.7496 10.3385,6.6953 34.74356,0 34.74356,0 l 105.45898,0 c 0,0 18.19036,5.5463 25.51407,0 9.9447,-7.5313 16.7376,-38.9127 16.7376,-38.9127 -25.18137,-264.3083 -136.14632,-494.6191 -296.08918,-643.717 0,0 -40.3642,21.2088 -60.05381,33.2082 z"
               style="fill:none;stroke:#ff0000;stroke-width:0.41413659;stroke-miterlimit:4;stroke-dasharray:none;stroke-dashoffset:0;stroke-opacity:1" />
          </g>
          <g
             id="g4680-1-7">
            <path
               style="fill:none;stroke:#ff0000;stroke-width:0.35433072;stroke-miterlimit:4;stroke-dasharray:none;stroke-opacity:1"
               d="m 2678.2728,-164.9049 a 5.314961,5.314961 0 1 0 0,10.62992 5.314961,5.314961 0 1 0 0,-10.62992 z"
               id="path3359-4-9-9"
               inkscape:connector-curvature="0" />
            <path
               style="fill:none;stroke:#ff0000;stroke-width:0.35433072;stroke-miterlimit:4;stroke-dasharray:none;stroke-opacity:1"
               d="m 2600.32,-164.9049 a 5.314961,5.314961 0 1 0 0,10.62992 5.314961,5.314961 0 1 0 0,-10.62992 z"
               id="path3361-3-3-1"
               inkscape:connector-curvature="0" />
            <path
               style="fill:none;stroke:#ff0000;stroke-width:0.35433072;stroke-miterlimit:4;stroke-dasharray:none;stroke-opacity:1"
               d="m 2700.5956,-146.12537 a 5.314961,5.314961 0 1 0 0,10.62992 5.314961,5.314961 0 1 0 0,-10.62992 z"
               id="path3363-5-9-0"
               inkscape:connector-curvature="0" />
            <path
               style="fill:none;stroke:#ff0000;stroke-width:0.35433072;stroke-miterlimit:4;stroke-dasharray:none;stroke-opacity:1"
               d="m 2577.9972,-146.12537 a 5.314961,5.314961 0 1 0 0,10.62992 5.314961,5.314961 0 1 0 0,-10.62992 z"
               id="path3365-1-42-3"
               inkscape:connector-curvature="0" />
            <path
               style="fill:none;stroke:#ff0000;stroke-width:0.35433072;stroke-miterlimit:4;stroke-dasharray:none;stroke-dashoffset:0;stroke-opacity:1"
               d="m 2588.1815,-114.36291 0,-35.84603 102.2299,0 0,35.82315"
               id="rect4128-1-3-6"
               inkscape:connector-curvature="0"
               sodipodi:nodetypes="cccc" />
          </g>
        </g>
        <g
           transform="matrix(-1,0,0,1,4704.8711,0)"
           id="g5025-9-9-7">
          <g
             transform="translate(-13.809998,-7.4523002)"
             id="g4132-8-1-4">
            <g
               transform="matrix(-0.25881905,-0.96592583,0.96592583,-0.25881905,2211.6841,225.5382)"
               id="g4066-4-8-7-3">
              <circle
                 transform="matrix(0.70710678,-0.70710678,0.70710678,0.70710678,-379.99999,70.307214)"
                 r="17.53937"
                 cy="980.02759"
                 cx="540.35431"
                 id="path4140-7-2-8-3"
                 style="fill:none;stroke:#ff0000;stroke-width:0.35433072;stroke-miterlimit:4;stroke-dasharray:none;stroke-opacity:1" />
              <circle
                 transform="matrix(0.70710678,-0.70710678,0.70710678,0.70710678,-379.99999,70.307214)"
                 r="5.1377954"
                 cy="980.02759"
                 cx="501.37796"
                 id="path4140-2-9-7-6-5"
                 style="fill:none;stroke:#ff0000;stroke-width:0.35433072;stroke-miterlimit:4;stroke-dasharray:none;stroke-opacity:1" />
              <circle
                 transform="matrix(0.70710678,-0.70710678,0.70710678,0.70710678,-379.99999,70.307214)"
                 r="5.1377954"
                 cy="980.02759"
                 cx="579.33069"
                 id="path4140-2-2-4-3-3-8"
                 style="fill:none;stroke:#ff0000;stroke-width:0.35433072;stroke-miterlimit:4;stroke-dasharray:none;stroke-opacity:1" />
              <circle
                 transform="matrix(0.70710678,-0.70710678,0.70710678,0.70710678,-379.99999,70.307214)"
                 r="5.1377954"
                 cy="1019.004"
                 cx="540.35431"
                 id="path4140-2-0-2-89-5-7"
                 style="fill:none;stroke:#ff0000;stroke-width:0.35433072;stroke-miterlimit:4;stroke-dasharray:none;stroke-opacity:1" />
              <circle
                 transform="matrix(0.70710678,-0.70710678,0.70710678,0.70710678,-379.99999,70.307214)"
                 r="5.1377954"
                 cy="941.05127"
                 cx="540.35431"
                 id="path4140-2-1-5-0-2-0"
                 style="fill:none;stroke:#ff0000;stroke-width:0.35433072;stroke-miterlimit:4;stroke-dasharray:none;stroke-opacity:1" />
            </g>
            <path
               sodipodi:nodetypes="acaccaccacca"
               inkscape:connector-curvature="0"
               id="path4114-44-3-8"
               transform="matrix(0.96905734,0,0,0.75540687,1759.2057,-1554.9984)"
               d="m 661.25531,1267.5123 c -15.21112,9.2701 -34.92067,11.8313 -44.81161,29.9286 -6.22524,11.3902 -8.30139,26.3165 -9.87868,40.2296 -4.09894,36.1563 1.39539,109.5953 1.39539,109.5953 107.95388,102.9333 184.30767,257.3431 206.99198,434.9184 0,0 9.97372,28.2618 19.9917,34.7496 10.3385,6.6953 34.74356,0 34.74356,0 l 105.45898,0 c 0,0 18.19036,5.5463 25.51407,0 9.9447,-7.5313 16.7376,-38.9127 16.7376,-38.9127 -25.18137,-264.3083 -136.14632,-494.6191 -296.08918,-643.717 0,0 -40.3642,21.2088 -60.05381,33.2082 z"
               style="fill:none;stroke:#ff0000;stroke-width:0.41413659;stroke-miterlimit:4;stroke-dasharray:none;stroke-dashoffset:0;stroke-opacity:1" />
          </g>
          <g
             id="g4680-4-4-8">
            <path
               style="fill:none;stroke:#ff0000;stroke-width:0.35433072;stroke-miterlimit:4;stroke-dasharray:none;stroke-opacity:1"
               d="m 2678.2728,-164.9049 a 5.314961,5.314961 0 1 0 0,10.62992 5.314961,5.314961 0 1 0 0,-10.62992 z"
               id="path3359-4-72-4-3"
               inkscape:connector-curvature="0" />
            <path
               style="fill:none;stroke:#ff0000;stroke-width:0.35433072;stroke-miterlimit:4;stroke-dasharray:none;stroke-opacity:1"
               d="m 2600.32,-164.9049 a 5.314961,5.314961 0 1 0 0,10.62992 5.314961,5.314961 0 1 0 0,-10.62992 z"
               id="path3361-3-54-1-7"
               inkscape:connector-curvature="0" />
            <path
               style="fill:none;stroke:#ff0000;stroke-width:0.35433072;stroke-miterlimit:4;stroke-dasharray:none;stroke-opacity:1"
               d="m 2700.5956,-146.12537 a 5.314961,5.314961 0 1 0 0,10.62992 5.314961,5.314961 0 1 0 0,-10.62992 z"
               id="path3363-5-0-8-8"
               inkscape:connector-curvature="0" />
            <path
               style="fill:none;stroke:#ff0000;stroke-width:0.35433072;stroke-miterlimit:4;stroke-dasharray:none;stroke-opacity:1"
               d="m 2577.9972,-146.12537 a 5.314961,5.314961 0 1 0 0,10.62992 5.314961,5.314961 0 1 0 0,-10.62992 z"
               id="path3365-1-4-6-6"
               inkscape:connector-curvature="0" />
            <path
               style="fill:none;stroke:#ff0000;stroke-width:0.35433072;stroke-miterlimit:4;stroke-dasharray:none;stroke-dashoffset:0;stroke-opacity:1"
               d="m 2588.1815,-114.36291 0,-35.84603 102.2299,0 0,35.82315"
               id="rect4128-1-2-4-9"
               inkscape:connector-curvature="0"
               sodipodi:nodetypes="cccc" />
          </g>
        </g>
        <g
           id="g4885-7-4-0-4-3"
           transform="matrix(0.33165042,0.94340235,0.94340235,-0.33165042,1999.5389,-1998.7185)">
          <g
             transform="translate(-777.32939,40.910505)"
             id="g4680-1-6-5-5-4-07-0">
            <path
               style="fill:none;stroke:#ff0000;stroke-width:0.35433072;stroke-miterlimit:4;stroke-dasharray:none;stroke-opacity:1"
               d="m 2678.2728,-164.9049 a 5.314961,5.314961 0 1 0 0,10.62992 5.314961,5.314961 0 1 0 0,-10.62992 z"
               id="path3359-4-7-3-0-4-7-0-6"
               inkscape:connector-curvature="0" />
            <path
               style="fill:none;stroke:#ff0000;stroke-width:0.35433072;stroke-miterlimit:4;stroke-dasharray:none;stroke-opacity:1"
               d="m 2600.32,-164.9049 a 5.314961,5.314961 0 1 0 0,10.62992 5.314961,5.314961 0 1 0 0,-10.62992 z"
               id="path3361-3-1-9-3-1-2-5-3"
               inkscape:connector-curvature="0" />
            <path
               style="fill:none;stroke:#ff0000;stroke-width:0.35433072;stroke-miterlimit:4;stroke-dasharray:none;stroke-opacity:1"
               d="m 2700.5956,-146.12537 a 5.314961,5.314961 0 1 0 0,10.62992 5.314961,5.314961 0 1 0 0,-10.62992 z"
               id="path3363-5-97-1-7-7-4-9-1"
               inkscape:connector-curvature="0" />
            <path
               style="fill:none;stroke:#ff0000;stroke-width:0.35433072;stroke-miterlimit:4;stroke-dasharray:none;stroke-opacity:1"
               d="m 2577.9972,-146.12537 a 5.314961,5.314961 0 1 0 0,10.62992 5.314961,5.314961 0 1 0 0,-10.62992 z"
               id="path3365-1-7-4-8-6-5-5-5"
               inkscape:connector-curvature="0" />
            <path
               style="fill:none;stroke:#ff0000;stroke-width:0.35433072;stroke-miterlimit:4;stroke-dasharray:none;stroke-dashoffset:0;stroke-opacity:1"
               d="m 2588.1815,-114.36291 0,-35.84603 102.2299,0 0,35.82315"
               id="rect4128-1-7-2-2-0-5-0-3"
               inkscape:connector-curvature="0"
               sodipodi:nodetypes="cccc" />
          </g>
          <path
             d="m 1745.1318,-156.49179 c 99.9909,-29.0238 155.8495,-45.1986 187.0539,-54.21272 m -187.0529,54.17833 c 5.2591,18.52817 9.5034,37.48306 12.6691,56.800855 0,0 9.6651,21.349158 19.3731,26.250087 10.0186,5.057675 33.6685,0 33.6685,0 l 102.1958,0 c 0,0 17.6275,4.189713 24.7246,0 9.637,-5.689196 16.2197,-29.394922 16.2197,-29.394922 -4.5093,-36.8952 -11.8572,-72.91346 -21.8187,-107.82965"
             style="fill:none;stroke:#ff0000;stroke-width:0.35433072;stroke-linecap:butt;stroke-linejoin:miter;stroke-miterlimit:4;stroke-dasharray:none;stroke-opacity:1"
             id="path4864-5-2-6-4-6"
             inkscape:connector-curvature="0" />
        </g>
        <g
           id="g5234-4-0"
           transform="translate(-4.3945313,11.71875)">
          <g
             transform="matrix(-0.31200844,0.95007933,-0.95007933,-0.31200844,2711.5556,-1981.3507)"
             id="g4885-7-4-0-6-3-1">
            <g
               id="g4680-1-6-5-5-4-0-3-8"
               transform="translate(-777.32939,40.910505)">
              <path
                 inkscape:connector-curvature="0"
                 id="path3359-4-7-3-0-4-7-3-9-3"
                 d="m 2678.2728,-164.9049 a 5.314961,5.314961 0 1 0 0,10.62992 5.314961,5.314961 0 1 0 0,-10.62992 z"
                 style="fill:none;stroke:#ff0000;stroke-width:0.35433072;stroke-miterlimit:4;stroke-dasharray:none;stroke-opacity:1" />
              <path
                 inkscape:connector-curvature="0"
                 id="path3361-3-1-9-3-1-2-6-0-0"
                 d="m 2600.32,-164.9049 a 5.314961,5.314961 0 1 0 0,10.62992 5.314961,5.314961 0 1 0 0,-10.62992 z"
                 style="fill:none;stroke:#ff0000;stroke-width:0.35433072;stroke-miterlimit:4;stroke-dasharray:none;stroke-opacity:1" />
              <path
                 inkscape:connector-curvature="0"
                 id="path3363-5-97-1-7-7-4-3-4-2"
                 d="m 2700.5956,-146.12537 a 5.314961,5.314961 0 1 0 0,10.62992 5.314961,5.314961 0 1 0 0,-10.62992 z"
                 style="fill:none;stroke:#ff0000;stroke-width:0.35433072;stroke-miterlimit:4;stroke-dasharray:none;stroke-opacity:1" />
              <path
                 inkscape:connector-curvature="0"
                 id="path3365-1-7-4-8-6-5-8-2-3"
                 d="m 2577.9972,-146.12537 a 5.314961,5.314961 0 1 0 0,10.62992 5.314961,5.314961 0 1 0 0,-10.62992 z"
                 style="fill:none;stroke:#ff0000;stroke-width:0.35433072;stroke-miterlimit:4;stroke-dasharray:none;stroke-opacity:1" />
              <path
                 sodipodi:nodetypes="cccc"
                 inkscape:connector-curvature="0"
                 id="rect4128-1-7-2-2-0-5-6-3-3"
                 d="m 2588.1815,-114.36291 0,-35.84603 102.2299,0 0,35.82315"
                 style="fill:none;stroke:#ff0000;stroke-width:0.35433072;stroke-miterlimit:4;stroke-dasharray:none;stroke-dashoffset:0;stroke-opacity:1" />
            </g>
            <path
               inkscape:connector-curvature="0"
               id="path4864-5-2-6-5-7-4"
               style="fill:none;stroke:#ff0000;stroke-width:0.35433072;stroke-linecap:butt;stroke-linejoin:miter;stroke-miterlimit:4;stroke-dasharray:none;stroke-opacity:1"
               d="m 1745.1318,-156.49179 c 99.9909,-29.0238 155.8495,-45.1986 187.0539,-54.21272 m -187.0529,54.17833 c 5.2591,18.52817 9.5034,37.48306 12.6691,56.800855 0,0 9.6651,21.349158 19.3731,26.250087 10.0186,5.057675 33.6685,0 33.6685,0 l 102.1958,0 c 0,0 17.6275,4.189713 24.7246,0 9.637,-5.689196 16.2197,-29.394922 16.2197,-29.394922 -4.5093,-36.8952 -11.8572,-72.91346 -21.8187,-107.82965" />
          </g>
        </g>
        <g
           transform="matrix(-0.96592583,0.25881905,-0.25881905,-0.96592583,4501.8869,-1064.5655)"
           id="g5234-0-0-4">
          <g
             transform="matrix(-0.31200844,0.95007933,-0.95007933,-0.31200844,2711.5556,-1981.3507)"
             id="g4885-7-4-0-6-5-1-3">
            <g
               id="g4680-1-6-5-5-4-0-4-2-2"
               transform="translate(-777.32939,40.910505)">
              <path
                 inkscape:connector-curvature="0"
                 id="path3359-4-7-3-0-4-7-3-5-2-1"
                 d="m 2678.2728,-164.9049 a 5.314961,5.314961 0 1 0 0,10.62992 5.314961,5.314961 0 1 0 0,-10.62992 z"
                 style="fill:none;stroke:#ff0000;stroke-width:0.35433072;stroke-miterlimit:4;stroke-dasharray:none;stroke-opacity:1" />
              <path
                 inkscape:connector-curvature="0"
                 id="path3361-3-1-9-3-1-2-6-5-1-5"
                 d="m 2600.32,-164.9049 a 5.314961,5.314961 0 1 0 0,10.62992 5.314961,5.314961 0 1 0 0,-10.62992 z"
                 style="fill:none;stroke:#ff0000;stroke-width:0.35433072;stroke-miterlimit:4;stroke-dasharray:none;stroke-opacity:1" />
              <path
                 inkscape:connector-curvature="0"
                 id="path3363-5-97-1-7-7-4-3-6-6-7"
                 d="m 2700.5956,-146.12537 a 5.314961,5.314961 0 1 0 0,10.62992 5.314961,5.314961 0 1 0 0,-10.62992 z"
                 style="fill:none;stroke:#ff0000;stroke-width:0.35433072;stroke-miterlimit:4;stroke-dasharray:none;stroke-opacity:1" />
              <path
                 inkscape:connector-curvature="0"
                 id="path3365-1-7-4-8-6-5-8-3-2-2"
                 d="m 2577.9972,-146.12537 a 5.314961,5.314961 0 1 0 0,10.62992 5.314961,5.314961 0 1 0 0,-10.62992 z"
                 style="fill:none;stroke:#ff0000;stroke-width:0.35433072;stroke-miterlimit:4;stroke-dasharray:none;stroke-opacity:1" />
              <path
                 sodipodi:nodetypes="cccc"
                 inkscape:connector-curvature="0"
                 id="rect4128-1-7-2-2-0-5-6-8-8-8"
                 d="m 2588.1815,-114.36291 0,-35.84603 102.2299,0 0,35.82315"
                 style="fill:none;stroke:#ff0000;stroke-width:0.35433072;stroke-miterlimit:4;stroke-dasharray:none;stroke-dashoffset:0;stroke-opacity:1" />
            </g>
            <path
               inkscape:connector-curvature="0"
               id="path4864-5-2-6-5-9-7-5"
               style="fill:none;stroke:#ff0000;stroke-width:0.35433072;stroke-linecap:butt;stroke-linejoin:miter;stroke-miterlimit:4;stroke-dasharray:none;stroke-opacity:1"
               d="m 1745.1318,-156.49179 c 99.9909,-29.0238 155.8495,-45.1986 187.0539,-54.21272 m -187.0529,54.17833 c 5.2591,18.52817 9.5034,37.48306 12.6691,56.800855 0,0 9.6651,21.349158 19.3731,26.250087 10.0186,5.057675 33.6685,0 33.6685,0 l 102.1958,0 c 0,0 17.6275,4.189713 24.7246,0 9.637,-5.689196 16.2197,-29.394922 16.2197,-29.394922 -4.5093,-36.8952 -11.8572,-72.91346 -21.8187,-107.82965" />
          </g>
        </g>
      </g>
      <g
         id="g4243-9-3"
         transform="translate(826.15503,-2.9501293e-6)">
        <g
           id="g5025-0-1"
           transform="translate(51.269532,0)">
          <g
             transform="translate(-13.809998,-7.4523002)"
             id="g4132-9-4">
            <g
               transform="matrix(-0.25881905,-0.96592583,0.96592583,-0.25881905,2211.6841,225.5382)"
               id="g4066-4-7-53">
              <circle
                 transform="matrix(0.70710678,-0.70710678,0.70710678,0.70710678,-379.99999,70.307214)"
                 r="17.53937"
                 cy="980.02759"
                 cx="540.35431"
                 id="path4140-7-7-6"
                 style="fill:none;stroke:#ff0000;stroke-width:0.35433072;stroke-miterlimit:4;stroke-dasharray:none;stroke-opacity:1" />
              <circle
                 transform="matrix(0.70710678,-0.70710678,0.70710678,0.70710678,-379.99999,70.307214)"
                 r="5.1377954"
                 cy="980.02759"
                 cx="501.37796"
                 id="path4140-2-9-4-4"
                 style="fill:none;stroke:#ff0000;stroke-width:0.35433072;stroke-miterlimit:4;stroke-dasharray:none;stroke-opacity:1" />
              <circle
                 transform="matrix(0.70710678,-0.70710678,0.70710678,0.70710678,-379.99999,70.307214)"
                 r="5.1377954"
                 cy="980.02759"
                 cx="579.33069"
                 id="path4140-2-2-4-5-1"
                 style="fill:none;stroke:#ff0000;stroke-width:0.35433072;stroke-miterlimit:4;stroke-dasharray:none;stroke-opacity:1" />
              <circle
                 transform="matrix(0.70710678,-0.70710678,0.70710678,0.70710678,-379.99999,70.307214)"
                 r="5.1377954"
                 cy="1019.004"
                 cx="540.35431"
                 id="path4140-2-0-2-0-7"
                 style="fill:none;stroke:#ff0000;stroke-width:0.35433072;stroke-miterlimit:4;stroke-dasharray:none;stroke-opacity:1" />
              <circle
                 transform="matrix(0.70710678,-0.70710678,0.70710678,0.70710678,-379.99999,70.307214)"
                 r="5.1377954"
                 cy="941.05127"
                 cx="540.35431"
                 id="path4140-2-1-5-5-8"
                 style="fill:none;stroke:#ff0000;stroke-width:0.35433072;stroke-miterlimit:4;stroke-dasharray:none;stroke-opacity:1" />
            </g>
            <path
               sodipodi:nodetypes="acaccaccacca"
               inkscape:connector-curvature="0"
               id="path4114-7-8"
               transform="matrix(0.96905734,0,0,0.75540687,1759.2057,-1554.9984)"
               d="m 661.25531,1267.5123 c -15.21112,9.2701 -34.92067,11.8313 -44.81161,29.9286 -6.22524,11.3902 -8.30139,26.3165 -9.87868,40.2296 -4.09894,36.1563 1.39539,109.5953 1.39539,109.5953 107.95388,102.9333 184.30767,257.3431 206.99198,434.9184 0,0 9.97372,28.2618 19.9917,34.7496 10.3385,6.6953 34.74356,0 34.74356,0 l 105.45898,0 c 0,0 18.19036,5.5463 25.51407,0 9.9447,-7.5313 16.7376,-38.9127 16.7376,-38.9127 -25.18137,-264.3083 -136.14632,-494.6191 -296.08918,-643.717 0,0 -40.3642,21.2088 -60.05381,33.2082 z"
               style="fill:none;stroke:#ff0000;stroke-width:0.41413659;stroke-miterlimit:4;stroke-dasharray:none;stroke-dashoffset:0;stroke-opacity:1" />
          </g>
          <g
             id="g4680-1-8">
            <path
               style="fill:none;stroke:#ff0000;stroke-width:0.35433072;stroke-miterlimit:4;stroke-dasharray:none;stroke-opacity:1"
               d="m 2678.2728,-164.9049 a 5.314961,5.314961 0 1 0 0,10.62992 5.314961,5.314961 0 1 0 0,-10.62992 z"
               id="path3359-4-9-5"
               inkscape:connector-curvature="0" />
            <path
               style="fill:none;stroke:#ff0000;stroke-width:0.35433072;stroke-miterlimit:4;stroke-dasharray:none;stroke-opacity:1"
               d="m 2600.32,-164.9049 a 5.314961,5.314961 0 1 0 0,10.62992 5.314961,5.314961 0 1 0 0,-10.62992 z"
               id="path3361-3-3-5"
               inkscape:connector-curvature="0" />
            <path
               style="fill:none;stroke:#ff0000;stroke-width:0.35433072;stroke-miterlimit:4;stroke-dasharray:none;stroke-opacity:1"
               d="m 2700.5956,-146.12537 a 5.314961,5.314961 0 1 0 0,10.62992 5.314961,5.314961 0 1 0 0,-10.62992 z"
               id="path3363-5-9-00"
               inkscape:connector-curvature="0" />
            <path
               style="fill:none;stroke:#ff0000;stroke-width:0.35433072;stroke-miterlimit:4;stroke-dasharray:none;stroke-opacity:1"
               d="m 2577.9972,-146.12537 a 5.314961,5.314961 0 1 0 0,10.62992 5.314961,5.314961 0 1 0 0,-10.62992 z"
               id="path3365-1-42-5"
               inkscape:connector-curvature="0" />
            <path
               style="fill:none;stroke:#ff0000;stroke-width:0.35433072;stroke-miterlimit:4;stroke-dasharray:none;stroke-dashoffset:0;stroke-opacity:1"
               d="m 2588.1815,-114.36291 0,-35.84603 102.2299,0 0,35.82315"
               id="rect4128-1-3-8"
               inkscape:connector-curvature="0"
               sodipodi:nodetypes="cccc" />
          </g>
        </g>
        <g
           transform="matrix(-1,0,0,1,4704.8711,0)"
           id="g5025-9-9-1">
          <g
             transform="translate(-13.809998,-7.4523002)"
             id="g4132-8-1-9">
            <g
               transform="matrix(-0.25881905,-0.96592583,0.96592583,-0.25881905,2211.6841,225.5382)"
               id="g4066-4-8-7-31">
              <circle
                 transform="matrix(0.70710678,-0.70710678,0.70710678,0.70710678,-379.99999,70.307214)"
                 r="17.53937"
                 cy="980.02759"
                 cx="540.35431"
                 id="path4140-7-2-8-2"
                 style="fill:none;stroke:#ff0000;stroke-width:0.35433072;stroke-miterlimit:4;stroke-dasharray:none;stroke-opacity:1" />
              <circle
                 transform="matrix(0.70710678,-0.70710678,0.70710678,0.70710678,-379.99999,70.307214)"
                 r="5.1377954"
                 cy="980.02759"
                 cx="501.37796"
                 id="path4140-2-9-7-6-0"
                 style="fill:none;stroke:#ff0000;stroke-width:0.35433072;stroke-miterlimit:4;stroke-dasharray:none;stroke-opacity:1" />
              <circle
                 transform="matrix(0.70710678,-0.70710678,0.70710678,0.70710678,-379.99999,70.307214)"
                 r="5.1377954"
                 cy="980.02759"
                 cx="579.33069"
                 id="path4140-2-2-4-3-3-9"
                 style="fill:none;stroke:#ff0000;stroke-width:0.35433072;stroke-miterlimit:4;stroke-dasharray:none;stroke-opacity:1" />
              <circle
                 transform="matrix(0.70710678,-0.70710678,0.70710678,0.70710678,-379.99999,70.307214)"
                 r="5.1377954"
                 cy="1019.004"
                 cx="540.35431"
                 id="path4140-2-0-2-89-5-9"
                 style="fill:none;stroke:#ff0000;stroke-width:0.35433072;stroke-miterlimit:4;stroke-dasharray:none;stroke-opacity:1" />
              <circle
                 transform="matrix(0.70710678,-0.70710678,0.70710678,0.70710678,-379.99999,70.307214)"
                 r="5.1377954"
                 cy="941.05127"
                 cx="540.35431"
                 id="path4140-2-1-5-0-2-3"
                 style="fill:none;stroke:#ff0000;stroke-width:0.35433072;stroke-miterlimit:4;stroke-dasharray:none;stroke-opacity:1" />
            </g>
            <path
               sodipodi:nodetypes="acaccaccacca"
               inkscape:connector-curvature="0"
               id="path4114-44-3-2"
               transform="matrix(0.96905734,0,0,0.75540687,1759.2057,-1554.9984)"
               d="m 661.25531,1267.5123 c -15.21112,9.2701 -34.92067,11.8313 -44.81161,29.9286 -6.22524,11.3902 -8.30139,26.3165 -9.87868,40.2296 -4.09894,36.1563 1.39539,109.5953 1.39539,109.5953 107.95388,102.9333 184.30767,257.3431 206.99198,434.9184 0,0 9.97372,28.2618 19.9917,34.7496 10.3385,6.6953 34.74356,0 34.74356,0 l 105.45898,0 c 0,0 18.19036,5.5463 25.51407,0 9.9447,-7.5313 16.7376,-38.9127 16.7376,-38.9127 -25.18137,-264.3083 -136.14632,-494.6191 -296.08918,-643.717 0,0 -40.3642,21.2088 -60.05381,33.2082 z"
               style="fill:none;stroke:#ff0000;stroke-width:0.41413659;stroke-miterlimit:4;stroke-dasharray:none;stroke-dashoffset:0;stroke-opacity:1" />
          </g>
          <g
             id="g4680-4-4-5">
            <path
               style="fill:none;stroke:#ff0000;stroke-width:0.35433072;stroke-miterlimit:4;stroke-dasharray:none;stroke-opacity:1"
               d="m 2678.2728,-164.9049 a 5.314961,5.314961 0 1 0 0,10.62992 5.314961,5.314961 0 1 0 0,-10.62992 z"
               id="path3359-4-72-4-2"
               inkscape:connector-curvature="0" />
            <path
               style="fill:none;stroke:#ff0000;stroke-width:0.35433072;stroke-miterlimit:4;stroke-dasharray:none;stroke-opacity:1"
               d="m 2600.32,-164.9049 a 5.314961,5.314961 0 1 0 0,10.62992 5.314961,5.314961 0 1 0 0,-10.62992 z"
               id="path3361-3-54-1-0"
               inkscape:connector-curvature="0" />
            <path
               style="fill:none;stroke:#ff0000;stroke-width:0.35433072;stroke-miterlimit:4;stroke-dasharray:none;stroke-opacity:1"
               d="m 2700.5956,-146.12537 a 5.314961,5.314961 0 1 0 0,10.62992 5.314961,5.314961 0 1 0 0,-10.62992 z"
               id="path3363-5-0-8-9"
               inkscape:connector-curvature="0" />
            <path
               style="fill:none;stroke:#ff0000;stroke-width:0.35433072;stroke-miterlimit:4;stroke-dasharray:none;stroke-opacity:1"
               d="m 2577.9972,-146.12537 a 5.314961,5.314961 0 1 0 0,10.62992 5.314961,5.314961 0 1 0 0,-10.62992 z"
               id="path3365-1-4-6-7"
               inkscape:connector-curvature="0" />
            <path
               style="fill:none;stroke:#ff0000;stroke-width:0.35433072;stroke-miterlimit:4;stroke-dasharray:none;stroke-dashoffset:0;stroke-opacity:1"
               d="m 2588.1815,-114.36291 0,-35.84603 102.2299,0 0,35.82315"
               id="rect4128-1-2-4-7"
               inkscape:connector-curvature="0"
               sodipodi:nodetypes="cccc" />
          </g>
        </g>
        <g
           id="g4885-7-4-0-4-2"
           transform="matrix(0.33165042,0.94340235,0.94340235,-0.33165042,1999.5389,-1998.7185)">
          <g
             transform="translate(-777.32939,40.910505)"
             id="g4680-1-6-5-5-4-07-4">
            <path
               style="fill:none;stroke:#ff0000;stroke-width:0.35433072;stroke-miterlimit:4;stroke-dasharray:none;stroke-opacity:1"
               d="m 2678.2728,-164.9049 a 5.314961,5.314961 0 1 0 0,10.62992 5.314961,5.314961 0 1 0 0,-10.62992 z"
               id="path3359-4-7-3-0-4-7-0-0"
               inkscape:connector-curvature="0" />
            <path
               style="fill:none;stroke:#ff0000;stroke-width:0.35433072;stroke-miterlimit:4;stroke-dasharray:none;stroke-opacity:1"
               d="m 2600.32,-164.9049 a 5.314961,5.314961 0 1 0 0,10.62992 5.314961,5.314961 0 1 0 0,-10.62992 z"
               id="path3361-3-1-9-3-1-2-5-35"
               inkscape:connector-curvature="0" />
            <path
               style="fill:none;stroke:#ff0000;stroke-width:0.35433072;stroke-miterlimit:4;stroke-dasharray:none;stroke-opacity:1"
               d="m 2700.5956,-146.12537 a 5.314961,5.314961 0 1 0 0,10.62992 5.314961,5.314961 0 1 0 0,-10.62992 z"
               id="path3363-5-97-1-7-7-4-9-7"
               inkscape:connector-curvature="0" />
            <path
               style="fill:none;stroke:#ff0000;stroke-width:0.35433072;stroke-miterlimit:4;stroke-dasharray:none;stroke-opacity:1"
               d="m 2577.9972,-146.12537 a 5.314961,5.314961 0 1 0 0,10.62992 5.314961,5.314961 0 1 0 0,-10.62992 z"
               id="path3365-1-7-4-8-6-5-5-7"
               inkscape:connector-curvature="0" />
            <path
               style="fill:none;stroke:#ff0000;stroke-width:0.35433072;stroke-miterlimit:4;stroke-dasharray:none;stroke-dashoffset:0;stroke-opacity:1"
               d="m 2588.1815,-114.36291 0,-35.84603 102.2299,0 0,35.82315"
               id="rect4128-1-7-2-2-0-5-0-1"
               inkscape:connector-curvature="0"
               sodipodi:nodetypes="cccc" />
          </g>
          <path
             d="m 1745.1318,-156.49179 c 99.9909,-29.0238 155.8495,-45.1986 187.0539,-54.21272 m -187.0529,54.17833 c 5.2591,18.52817 9.5034,37.48306 12.6691,56.800855 0,0 9.6651,21.349158 19.3731,26.250087 10.0186,5.057675 33.6685,0 33.6685,0 l 102.1958,0 c 0,0 17.6275,4.189713 24.7246,0 9.637,-5.689196 16.2197,-29.394922 16.2197,-29.394922 -4.5093,-36.8952 -11.8572,-72.91346 -21.8187,-107.82965"
             style="fill:none;stroke:#ff0000;stroke-width:0.35433072;stroke-linecap:butt;stroke-linejoin:miter;stroke-miterlimit:4;stroke-dasharray:none;stroke-opacity:1"
             id="path4864-5-2-6-4-1"
             inkscape:connector-curvature="0" />
        </g>
        <g
           id="g5234-4-2"
           transform="translate(-4.3945313,11.71875)">
          <g
             transform="matrix(-0.31200844,0.95007933,-0.95007933,-0.31200844,2711.5556,-1981.3507)"
             id="g4885-7-4-0-6-3-5">
            <g
               id="g4680-1-6-5-5-4-0-3-1"
               transform="translate(-777.32939,40.910505)">
              <path
                 inkscape:connector-curvature="0"
                 id="path3359-4-7-3-0-4-7-3-9-0"
                 d="m 2678.2728,-164.9049 a 5.314961,5.314961 0 1 0 0,10.62992 5.314961,5.314961 0 1 0 0,-10.62992 z"
                 style="fill:none;stroke:#ff0000;stroke-width:0.35433072;stroke-miterlimit:4;stroke-dasharray:none;stroke-opacity:1" />
              <path
                 inkscape:connector-curvature="0"
                 id="path3361-3-1-9-3-1-2-6-0-6"
                 d="m 2600.32,-164.9049 a 5.314961,5.314961 0 1 0 0,10.62992 5.314961,5.314961 0 1 0 0,-10.62992 z"
                 style="fill:none;stroke:#ff0000;stroke-width:0.35433072;stroke-miterlimit:4;stroke-dasharray:none;stroke-opacity:1" />
              <path
                 inkscape:connector-curvature="0"
                 id="path3363-5-97-1-7-7-4-3-4-9"
                 d="m 2700.5956,-146.12537 a 5.314961,5.314961 0 1 0 0,10.62992 5.314961,5.314961 0 1 0 0,-10.62992 z"
                 style="fill:none;stroke:#ff0000;stroke-width:0.35433072;stroke-miterlimit:4;stroke-dasharray:none;stroke-opacity:1" />
              <path
                 inkscape:connector-curvature="0"
                 id="path3365-1-7-4-8-6-5-8-2-0"
                 d="m 2577.9972,-146.12537 a 5.314961,5.314961 0 1 0 0,10.62992 5.314961,5.314961 0 1 0 0,-10.62992 z"
                 style="fill:none;stroke:#ff0000;stroke-width:0.35433072;stroke-miterlimit:4;stroke-dasharray:none;stroke-opacity:1" />
              <path
                 sodipodi:nodetypes="cccc"
                 inkscape:connector-curvature="0"
                 id="rect4128-1-7-2-2-0-5-6-3-9"
                 d="m 2588.1815,-114.36291 0,-35.84603 102.2299,0 0,35.82315"
                 style="fill:none;stroke:#ff0000;stroke-width:0.35433072;stroke-miterlimit:4;stroke-dasharray:none;stroke-dashoffset:0;stroke-opacity:1" />
            </g>
            <path
               inkscape:connector-curvature="0"
               id="path4864-5-2-6-5-7-8"
               style="fill:none;stroke:#ff0000;stroke-width:0.35433072;stroke-linecap:butt;stroke-linejoin:miter;stroke-miterlimit:4;stroke-dasharray:none;stroke-opacity:1"
               d="m 1745.1318,-156.49179 c 99.9909,-29.0238 155.8495,-45.1986 187.0539,-54.21272 m -187.0529,54.17833 c 5.2591,18.52817 9.5034,37.48306 12.6691,56.800855 0,0 9.6651,21.349158 19.3731,26.250087 10.0186,5.057675 33.6685,0 33.6685,0 l 102.1958,0 c 0,0 17.6275,4.189713 24.7246,0 9.637,-5.689196 16.2197,-29.394922 16.2197,-29.394922 -4.5093,-36.8952 -11.8572,-72.91346 -21.8187,-107.82965" />
          </g>
        </g>
        <g
           transform="matrix(-0.96592583,0.25881905,-0.25881905,-0.96592583,4501.8869,-1064.5655)"
           id="g5234-0-0-7">
          <g
             transform="matrix(-0.31200844,0.95007933,-0.95007933,-0.31200844,2711.5556,-1981.3507)"
             id="g4885-7-4-0-6-5-1-2">
            <g
               id="g4680-1-6-5-5-4-0-4-2-9"
               transform="translate(-777.32939,40.910505)">
              <path
                 inkscape:connector-curvature="0"
                 id="path3359-4-7-3-0-4-7-3-5-2-2"
                 d="m 2678.2728,-164.9049 a 5.314961,5.314961 0 1 0 0,10.62992 5.314961,5.314961 0 1 0 0,-10.62992 z"
                 style="fill:none;stroke:#ff0000;stroke-width:0.35433072;stroke-miterlimit:4;stroke-dasharray:none;stroke-opacity:1" />
              <path
                 inkscape:connector-curvature="0"
                 id="path3361-3-1-9-3-1-2-6-5-1-9"
                 d="m 2600.32,-164.9049 a 5.314961,5.314961 0 1 0 0,10.62992 5.314961,5.314961 0 1 0 0,-10.62992 z"
                 style="fill:none;stroke:#ff0000;stroke-width:0.35433072;stroke-miterlimit:4;stroke-dasharray:none;stroke-opacity:1" />
              <path
                 inkscape:connector-curvature="0"
                 id="path3363-5-97-1-7-7-4-3-6-6-74"
                 d="m 2700.5956,-146.12537 a 5.314961,5.314961 0 1 0 0,10.62992 5.314961,5.314961 0 1 0 0,-10.62992 z"
                 style="fill:none;stroke:#ff0000;stroke-width:0.35433072;stroke-miterlimit:4;stroke-dasharray:none;stroke-opacity:1" />
              <path
                 inkscape:connector-curvature="0"
                 id="path3365-1-7-4-8-6-5-8-3-2-7"
                 d="m 2577.9972,-146.12537 a 5.314961,5.314961 0 1 0 0,10.62992 5.314961,5.314961 0 1 0 0,-10.62992 z"
                 style="fill:none;stroke:#ff0000;stroke-width:0.35433072;stroke-miterlimit:4;stroke-dasharray:none;stroke-opacity:1" />
              <path
                 sodipodi:nodetypes="cccc"
                 inkscape:connector-curvature="0"
                 id="rect4128-1-7-2-2-0-5-6-8-8-9"
                 d="m 2588.1815,-114.36291 0,-35.84603 102.2299,0 0,35.82315"
                 style="fill:none;stroke:#ff0000;stroke-width:0.35433072;stroke-miterlimit:4;stroke-dasharray:none;stroke-dashoffset:0;stroke-opacity:1" />
            </g>
            <path
               inkscape:connector-curvature="0"
               id="path4864-5-2-6-5-9-7-0"
               style="fill:none;stroke:#ff0000;stroke-width:0.35433072;stroke-linecap:butt;stroke-linejoin:miter;stroke-miterlimit:4;stroke-dasharray:none;stroke-opacity:1"
               d="m 1745.1318,-156.49179 c 99.9909,-29.0238 155.8495,-45.1986 187.0539,-54.21272 m -187.0529,54.17833 c 5.2591,18.52817 9.5034,37.48306 12.6691,56.800855 0,0 9.6651,21.349158 19.3731,26.250087 10.0186,5.057675 33.6685,0 33.6685,0 l 102.1958,0 c 0,0 17.6275,4.189713 24.7246,0 9.637,-5.689196 16.2197,-29.394922 16.2197,-29.394922 -4.5093,-36.8952 -11.8572,-72.91346 -21.8187,-107.82965" />
          </g>
        </g>
      </g>
    </g>
  </g>
</svg>
